<?xml version="1.0" encoding="UTF-8" standalone="no"?>
<!-- Created with Inkscape (http://www.inkscape.org/) -->

<svg
   xmlns:dc="http://purl.org/dc/elements/1.1/"
   xmlns:cc="http://creativecommons.org/ns#"
   xmlns:rdf="http://www.w3.org/1999/02/22-rdf-syntax-ns#"
   xmlns:svg="http://www.w3.org/2000/svg"
   xmlns="http://www.w3.org/2000/svg"
   xmlns:sodipodi="http://sodipodi.sourceforge.net/DTD/sodipodi-0.dtd"
   xmlns:inkscape="http://www.inkscape.org/namespaces/inkscape"
   width="830"
   height="442"
   id="svg5129"
   version="1.1"
   inkscape:version="0.48.5 r10040"
   sodipodi:docname="dramsim2_ddr_power_chart.svg">
  <defs
     id="defs5131" />
  <sodipodi:namedview
     id="base"
     pagecolor="#ffffff"
     bordercolor="#666666"
     borderopacity="1.0"
     inkscape:pageopacity="0.0"
     inkscape:pageshadow="2"
     inkscape:zoom="2.8160878"
     inkscape:cx="270.17987"
     inkscape:cy="334.92275"
     inkscape:document-units="px"
     inkscape:current-layer="layer1"
     showgrid="false"
     inkscape:window-width="1600"
     inkscape:window-height="838"
     inkscape:window-x="-8"
     inkscape:window-y="-8"
     inkscape:window-maximized="1"
     showguides="true"
     inkscape:guide-bbox="true">
    <sodipodi:guide
       orientation="0,1"
       position="109.44687,123.6774"
       id="guide3197" />
    <sodipodi:guide
       orientation="1,0"
       position="65.132812,381"
       id="guide3190" />
  </sodipodi:namedview>
  <metadata
     id="metadata5134">
    <rdf:RDF>
      <cc:Work
         rdf:about="">
        <dc:format>image/svg+xml</dc:format>
        <dc:type
           rdf:resource="http://purl.org/dc/dcmitype/StillImage" />
        <dc:title />
      </cc:Work>
    </rdf:RDF>
  </metadata>
  <g
     inkscape:label="Layer 1"
     inkscape:groupmode="layer"
     id="layer1"
     transform="translate(0,-610.36218)">
    <path
       style="fill:#b3b3b3;stroke:#999999;stroke-width:1.20491374px;stroke-linecap:butt;stroke-linejoin:miter;stroke-opacity:1"
       d="m 91.824176,618.90439 668.797594,0"
       id="path4847-4-1-33-3"
       inkscape:connector-curvature="0" />
    <path
       style="fill:#b3b3b3;stroke:#999999;stroke-width:1.20500004;stroke-linecap:butt;stroke-linejoin:miter;stroke-miterlimit:4;stroke-opacity:1;stroke-dasharray:none"
       d="m 92.146836,625.07924 669.515714,0"
       id="path4847-4-2-4-2"
       inkscape:connector-curvature="0" />
    <path
       style="fill:#b3b3b3;stroke:#999999;stroke-width:1.20491374px;stroke-linecap:butt;stroke-linejoin:miter;stroke-opacity:1"
       d="m 90.667396,631.26306 668.797574,0"
       id="path4847-4-1-6-1-2"
       inkscape:connector-curvature="0" />
    <path
       style="fill:#b3b3b3;stroke:#999999;stroke-width:1.20519495px;stroke-linecap:butt;stroke-linejoin:miter;stroke-opacity:1"
       d="m 90.248306,637.49774 669.109844,0"
       id="path4847-4-21-1-1"
       inkscape:connector-curvature="0" />
    <path
       style="fill:#b3b3b3;stroke:#999999;stroke-width:1.20491374px;stroke-linecap:butt;stroke-linejoin:miter;stroke-opacity:1"
       d="m 91.018706,643.68156 668.797614,0"
       id="path4847-4-1-68-38-6"
       inkscape:connector-curvature="0" />
    <path
       style="fill:#b3b3b3;stroke:#999999;stroke-width:1.20516002px;stroke-linecap:butt;stroke-linejoin:miter;stroke-opacity:1"
       d="m 90.732176,649.85642 669.071074,0"
       id="path4847-4-2-5-7-8"
       inkscape:connector-curvature="0" />
    <path
       style="fill:#b3b3b3;stroke:#999999;stroke-width:1.20522416px;stroke-linecap:butt;stroke-linejoin:miter;stroke-opacity:1"
       d="m 92.080496,656.04023 669.142064,0"
       id="path4847-4-1-6-7-4-5"
       inkscape:connector-curvature="0" />
    <text
       xml:space="preserve"
       style="font-size:40px;font-style:normal;font-weight:normal;line-height:125%;letter-spacing:0px;word-spacing:0px;fill:#000000;fill-opacity:1;stroke:none;font-family:Sans"
       x="64.647346"
       y="646.2373"
       id="p_label10"
       sodipodi:linespacing="125%"
       inkscape:label="#text3954-5-6-6-9"><tspan
         sodipodi:role="line"
         id="tspan3956-1-8-1-48-7-45-1-1-5-7-1-8"
         x="64.647346"
         y="646.2373"
         style="font-size:9.19728851px;font-style:normal;font-variant:normal;font-weight:normal;font-stretch:normal;font-family:Calibri;-inkscape-font-specification:Calibri">275</tspan></text>
    <text
       xml:space="preserve"
       style="font-size:40px;font-style:normal;font-weight:normal;line-height:125%;letter-spacing:0px;word-spacing:0px;fill:#000000;fill-opacity:1;stroke:none;font-family:Sans"
       x="64.691406"
       y="621.80786"
       id="p_label11"
       sodipodi:linespacing="125%"
       inkscape:label="#text3954-5-6-6-9"><tspan
         sodipodi:role="line"
         id="tspan3956-1-8-1-48-7-45-1-1-5-7-2-2"
         x="64.691406"
         y="621.80786"
         style="font-size:9.19728851px;font-style:normal;font-variant:normal;font-weight:normal;font-stretch:normal;font-family:Calibri;-inkscape-font-specification:Calibri">300</tspan></text>
    <path
       style="fill:#b3b3b3;stroke:#999999;stroke-width:1.20491374px;stroke-linecap:butt;stroke-linejoin:miter;stroke-opacity:1"
       d="m 91.750415,717.6862 668.797605,0"
       id="path4847-4"
       inkscape:connector-curvature="0" />
    <path
       style="fill:#b3b3b3;stroke:#999999;stroke-width:1.2050544px;stroke-linecap:butt;stroke-linejoin:miter;stroke-opacity:1"
       d="m 92.364693,723.87002 668.953697,0"
       id="path4847-4-1"
       inkscape:connector-curvature="0" />
    <path
       style="fill:#b3b3b3;stroke:#999999;stroke-width:1.20491374px;stroke-linecap:butt;stroke-linejoin:miter;stroke-opacity:1"
       d="m 90.593688,730.04487 668.797582,0"
       id="path4847-4-2"
       inkscape:connector-curvature="0" />
    <path
       style="fill:#b3b3b3;stroke:#999999;stroke-width:1.20491374px;stroke-linecap:butt;stroke-linejoin:miter;stroke-opacity:1"
       d="m 91.364011,736.22869 668.797609,0"
       id="path4847-4-1-6"
       inkscape:connector-curvature="0" />
    <path
       style="fill:#b3b3b3;stroke:#999999;stroke-width:1.20491374px;stroke-linecap:butt;stroke-linejoin:miter;stroke-opacity:1"
       d="m 90.944954,742.46337 668.797606,0"
       id="path4847-4-21"
       inkscape:connector-curvature="0" />
    <path
       style="fill:#b3b3b3;stroke:#999999;stroke-width:1.20491374px;stroke-linecap:butt;stroke-linejoin:miter;stroke-opacity:1"
       d="m 91.715329,748.64719 668.797631,0"
       id="path4847-4-1-68"
       inkscape:connector-curvature="0" />
    <path
       style="fill:#b3b3b3;stroke:#999999;stroke-width:1.20516002px;stroke-linecap:butt;stroke-linejoin:miter;stroke-opacity:1"
       d="m 91.428819,754.82205 669.071061,0"
       id="path4847-4-2-5"
       inkscape:connector-curvature="0" />
    <path
       style="fill:#b3b3b3;stroke:#999999;stroke-width:1.20500004;stroke-linecap:butt;stroke-linejoin:miter;stroke-miterlimit:4;stroke-opacity:1;stroke-dasharray:none"
       d="m 90.55855,761.00586 669.89137,0"
       id="path4847-4-1-6-7"
       inkscape:connector-curvature="0" />
    <path
       style="fill:#b3b3b3;stroke:#999999;stroke-width:1.20491374px;stroke-linecap:butt;stroke-linejoin:miter;stroke-opacity:1"
       d="m 91.546906,767.35202 668.797594,0"
       id="path4847-4-6"
       inkscape:connector-curvature="0" />
    <path
       style="fill:#b3b3b3;stroke:#999999;stroke-width:1.20500004;stroke-linecap:butt;stroke-linejoin:miter;stroke-miterlimit:4;stroke-opacity:1;stroke-dasharray:none"
       d="m 90.950072,773.53584 670.164798,0"
       id="path4847-4-1-1"
       inkscape:connector-curvature="0" />
    <path
       style="fill:#b3b3b3;stroke:#999999;stroke-width:1.2054621px;stroke-linecap:butt;stroke-linejoin:miter;stroke-opacity:1"
       d="m 90.390124,779.7107 669.406456,0"
       id="path4847-4-2-8"
       inkscape:connector-curvature="0" />
    <path
       style="fill:#b3b3b3;stroke:#999999;stroke-width:1.20491374px;stroke-linecap:butt;stroke-linejoin:miter;stroke-opacity:1"
       d="m 91.1605,785.8945 668.79761,0"
       id="path4847-4-1-6-9"
       inkscape:connector-curvature="0" />
    <path
       style="fill:#b3b3b3;stroke:#999999;stroke-width:1.20500004;stroke-linecap:butt;stroke-linejoin:miter;stroke-miterlimit:4;stroke-opacity:1;stroke-dasharray:none"
       d="m 90.741433,792.12919 669.891347,0"
       id="path4847-4-21-2"
       inkscape:connector-curvature="0" />
    <path
       style="fill:#b3b3b3;stroke:#999999;stroke-width:1.20491374px;stroke-linecap:butt;stroke-linejoin:miter;stroke-opacity:1"
       d="m 91.511809,798.31301 668.797581,0"
       id="path4847-4-1-68-7"
       inkscape:connector-curvature="0" />
    <path
       style="fill:#b3b3b3;stroke:#999999;stroke-width:1.20516002px;stroke-linecap:butt;stroke-linejoin:miter;stroke-opacity:1"
       d="m 91.225298,804.48787 669.071092,0"
       id="path4847-4-2-5-9"
       inkscape:connector-curvature="0" />
    <path
       style="fill:#b3b3b3;stroke:#999999;stroke-width:1.20491374px;stroke-linecap:butt;stroke-linejoin:miter;stroke-opacity:1"
       d="m 91.448758,810.67168 668.797652,0"
       id="path4847-4-1-6-7-5"
       inkscape:connector-curvature="0" />
    <path
       style="fill:#b3b3b3;stroke:#999999;stroke-width:1.20491374px;stroke-linecap:butt;stroke-linejoin:miter;stroke-opacity:1"
       d="m 91.550628,816.76909 668.797602,0"
       id="path4847-4-4"
       inkscape:connector-curvature="0" />
    <path
       style="fill:#b3b3b3;stroke:#999999;stroke-width:1.20491374px;stroke-linecap:butt;stroke-linejoin:miter;stroke-opacity:1"
       d="m 92.320994,822.95291 668.797596,0"
       id="path4847-4-1-3"
       inkscape:connector-curvature="0" />
    <path
       style="fill:#b3b3b3;stroke:#999999;stroke-width:1.20525122px;stroke-linecap:butt;stroke-linejoin:miter;stroke-opacity:1"
       d="m 90.393869,829.12776 669.172251,0"
       id="path4847-4-2-1"
       inkscape:connector-curvature="0" />
    <path
       style="fill:#b3b3b3;stroke:#999999;stroke-width:1.20491374px;stroke-linecap:butt;stroke-linejoin:miter;stroke-opacity:1"
       d="m 91.164235,835.31158 668.797605,0"
       id="path4847-4-1-6-2"
       inkscape:connector-curvature="0" />
    <path
       style="fill:#b3b3b3;stroke:#999999;stroke-width:1.20491374px;stroke-linecap:butt;stroke-linejoin:miter;stroke-opacity:1"
       d="m 90.745136,841.54626 668.797594,0"
       id="path4847-4-21-3"
       inkscape:connector-curvature="0" />
    <path
       style="fill:#b3b3b3;stroke:#999999;stroke-width:1.20491374px;stroke-linecap:butt;stroke-linejoin:miter;stroke-opacity:1"
       d="m 91.515501,847.73008 668.797629,0"
       id="path4847-4-1-68-3"
       inkscape:connector-curvature="0" />
    <path
       style="fill:#b3b3b3;stroke:#999999;stroke-width:1.20516002px;stroke-linecap:butt;stroke-linejoin:miter;stroke-opacity:1"
       d="m 91.229011,853.90494 669.071049,0"
       id="path4847-4-2-5-4"
       inkscape:connector-curvature="0" />
    <path
       style="fill:#b3b3b3;stroke:#999999;stroke-width:1.20500004;stroke-linecap:butt;stroke-linejoin:miter;stroke-miterlimit:4;stroke-opacity:1;stroke-dasharray:none"
       d="m 90.35873,860.08875 669.89139,0"
       id="path4847-4-1-6-7-1"
       inkscape:connector-curvature="0" />
    <path
       style="fill:#b3b3b3;stroke:#999999;stroke-width:1.20491374px;stroke-linecap:butt;stroke-linejoin:miter;stroke-opacity:1"
       d="m 91.347076,866.43491 668.797634,0"
       id="path4847-4-6-1"
       inkscape:connector-curvature="0" />
    <path
       style="fill:#b3b3b3;stroke:#999999;stroke-width:1.20500004;stroke-linecap:butt;stroke-linejoin:miter;stroke-miterlimit:4;stroke-opacity:1;stroke-dasharray:none"
       d="m 90.750255,872.61873 670.164825,0"
       id="path4847-4-1-1-3"
       inkscape:connector-curvature="0" />
    <path
       style="fill:#b3b3b3;stroke:#999999;stroke-width:1.20545053px;stroke-linecap:butt;stroke-linejoin:miter;stroke-opacity:1"
       d="m 90.190338,878.79359 669.393672,0"
       id="path4847-4-2-8-8"
       inkscape:connector-curvature="0" />
    <path
       style="fill:#b3b3b3;stroke:#999999;stroke-width:1.20500004;stroke-linecap:butt;stroke-linejoin:miter;stroke-miterlimit:4;stroke-opacity:1;stroke-dasharray:none"
       d="m 90.960704,884.97739 668.797596,0"
       id="path4847-4-1-6-9-7"
       inkscape:connector-curvature="0" />
    <path
       style="fill:#b3b3b3;stroke:#999999;stroke-width:1.20500004;stroke-linecap:butt;stroke-linejoin:miter;stroke-miterlimit:4;stroke-opacity:1;stroke-dasharray:none"
       d="m 90.541636,891.21209 669.891344,0"
       id="path4847-4-21-2-4"
       inkscape:connector-curvature="0" />
    <path
       style="fill:#b3b3b3;stroke:#999999;stroke-width:1.20491374px;stroke-linecap:butt;stroke-linejoin:miter;stroke-opacity:1"
       d="m 91.31199,897.39589 668.79764,0"
       id="path4847-4-1-68-7-2"
       inkscape:connector-curvature="0" />
    <path
       style="fill:#b3b3b3;stroke:#999999;stroke-width:1.20516002px;stroke-linecap:butt;stroke-linejoin:miter;stroke-opacity:1"
       d="m 91.02549,903.57079 669.07104,0"
       id="path4847-4-2-5-9-7"
       inkscape:connector-curvature="0" />
    <path
       style="fill:#b3b3b3;stroke:#999999;stroke-width:1.20491374px;stroke-linecap:butt;stroke-linejoin:miter;stroke-opacity:1"
       d="m 91.248971,909.75459 668.797629,0"
       id="path4847-4-1-6-7-5-7"
       inkscape:connector-curvature="0" />
    <rect
       style="color:#000000;fill:#cccccc;fill-opacity:1;fill-rule:nonzero;stroke:#000000;stroke-width:0.98757964;stroke-linecap:butt;stroke-linejoin:miter;stroke-miterlimit:4;stroke-opacity:1;stroke-dasharray:none;stroke-dashoffset:0;marker:none;visibility:visible;display:inline;overflow:visible;enable-background:accumulate"
       id="idd2p_up2"
       width="10.060705"
       height="10.318671"
       x="214.10345"
       y="932.1087"
       inkscape:label=""
       onmouseover="Increase the Transaction Queue by a power of 2." />
    <path
       sodipodi:type="star"
       style="color:#000000;fill:#000000;fill-opacity:1;fill-rule:nonzero;stroke:#000000;stroke-width:2;stroke-linecap:butt;stroke-linejoin:miter;stroke-miterlimit:4;stroke-opacity:1;stroke-dasharray:none;stroke-dashoffset:0;marker:none;visibility:visible;display:inline;overflow:visible;enable-background:accumulate"
       id="idd2p_up"
       sodipodi:sides="3"
       sodipodi:cx="104.48446"
       sodipodi:cy="832.90851"
       sodipodi:r1="5.8408594"
       sodipodi:r2="2.9204297"
       sodipodi:arg1="2.6179939"
       sodipodi:arg2="3.6651914"
       inkscape:flatsided="false"
       inkscape:rounded="0"
       inkscape:randomized="0"
       d="m 99.426126,835.82894 2.529164,-4.38065 2.52917,-4.38064 2.52917,4.38064 2.52916,4.38065 -5.05833,0 z"
       transform="matrix(0.47561805,0,0,0.37415892,169.32487,626.69761)"
       inkscape:transform-center-y="-0.54632058"
       inkscape:label=""
       onmouseover="Increase the Transaction Queue by a power of 2." />
    <rect
       style="color:#000000;fill:#cccccc;fill-opacity:1;fill-rule:nonzero;stroke:#000000;stroke-width:0.98757964;stroke-linecap:butt;stroke-linejoin:miter;stroke-miterlimit:4;stroke-opacity:1;stroke-dasharray:none;stroke-dashoffset:0;marker:none;visibility:visible;display:inline;overflow:visible;enable-background:accumulate"
       id="idd2p_down2"
       width="10.060705"
       height="10.318671"
       x="-224.20142"
       y="-955.91718"
       inkscape:label=""
       onmouseover="Increase the Transaction Queue by a power of 2."
       transform="scale(-1,-1)" />
    <path
       sodipodi:type="star"
       style="color:#000000;fill:#000000;fill-opacity:1;fill-rule:nonzero;stroke:#000000;stroke-width:2;stroke-linecap:butt;stroke-linejoin:miter;stroke-miterlimit:4;stroke-opacity:1;stroke-dasharray:none;stroke-dashoffset:0;marker:none;visibility:visible;display:inline;overflow:visible;enable-background:accumulate"
       id="idd2p_down"
       sodipodi:sides="3"
       sodipodi:cx="104.48446"
       sodipodi:cy="832.90851"
       sodipodi:r1="5.8408594"
       sodipodi:r2="2.9204297"
       sodipodi:arg1="2.6179939"
       sodipodi:arg2="3.6651914"
       inkscape:flatsided="false"
       inkscape:rounded="0"
       inkscape:randomized="0"
       d="m 99.426126,835.82894 2.529164,-4.38065 2.52917,-4.38064 2.52917,4.38064 2.52916,4.38065 -5.05833,0 z"
       transform="matrix(-0.47561805,0,0,-0.37415892,268.84033,1261.3284)"
       inkscape:label=""
       onmouseover="Increase the Transaction Queue by a power of 2."
       inkscape:transform-center-y="0.54631916" />
    <rect
       style="color:#000000;fill:#cccccc;fill-opacity:1;fill-rule:nonzero;stroke:#000000;stroke-width:0.98757964;stroke-linecap:butt;stroke-linejoin:miter;stroke-miterlimit:4;stroke-opacity:1;stroke-dasharray:none;stroke-dashoffset:0;marker:none;visibility:visible;display:inline;overflow:visible;enable-background:accumulate"
       id="idd1_up2"
       width="10.060705"
       height="10.318671"
       x="171.7796"
       y="932.11908"
       inkscape:label=""
       onmouseover="Increase the Transaction Queue by a power of 2." />
    <path
       sodipodi:type="star"
       style="color:#000000;fill:#000000;fill-opacity:1;fill-rule:nonzero;stroke:#000000;stroke-width:2;stroke-linecap:butt;stroke-linejoin:miter;stroke-miterlimit:4;stroke-opacity:1;stroke-dasharray:none;stroke-dashoffset:0;marker:none;visibility:visible;display:inline;overflow:visible;enable-background:accumulate"
       id="idd1_up"
       sodipodi:sides="3"
       sodipodi:cx="104.48446"
       sodipodi:cy="832.90851"
       sodipodi:r1="5.8408594"
       sodipodi:r2="2.9204297"
       sodipodi:arg1="2.6179939"
       sodipodi:arg2="3.6651914"
       inkscape:flatsided="false"
       inkscape:rounded="0"
       inkscape:randomized="0"
       d="m 99.426126,835.82894 2.529164,-4.38065 2.52917,-4.38064 2.52917,4.38064 2.52916,4.38065 -5.05833,0 z"
       transform="matrix(0.47561805,0,0,0.37415892,127.16365,626.70811)"
       inkscape:transform-center-y="-0.54631114"
       inkscape:label=""
       onmouseover="Increase the Transaction Queue by a power of 2." />
    <rect
       style="color:#000000;fill:#cccccc;fill-opacity:1;fill-rule:nonzero;stroke:#000000;stroke-width:0.98757964;stroke-linecap:butt;stroke-linejoin:miter;stroke-miterlimit:4;stroke-opacity:1;stroke-dasharray:none;stroke-dashoffset:0;marker:none;visibility:visible;display:inline;overflow:visible;enable-background:accumulate"
       id="idd1_down2"
       width="10.060705"
       height="10.318671"
       x="-182.04016"
       y="-955.92767"
       inkscape:label=""
       onmouseover="Increase the Transaction Queue by a power of 2."
       transform="scale(-1,-1)" />
    <path
       sodipodi:type="star"
       style="color:#000000;fill:#000000;fill-opacity:1;fill-rule:nonzero;stroke:#000000;stroke-width:2;stroke-linecap:butt;stroke-linejoin:miter;stroke-miterlimit:4;stroke-opacity:1;stroke-dasharray:none;stroke-dashoffset:0;marker:none;visibility:visible;display:inline;overflow:visible;enable-background:accumulate"
       id="idd1_down"
       sodipodi:sides="3"
       sodipodi:cx="104.48446"
       sodipodi:cy="832.90851"
       sodipodi:r1="5.8408594"
       sodipodi:r2="2.9204297"
       sodipodi:arg1="2.6179939"
       sodipodi:arg2="3.6651914"
       inkscape:flatsided="false"
       inkscape:rounded="0"
       inkscape:randomized="0"
       d="m 99.426126,835.82894 2.529164,-4.38065 2.52917,-4.38064 2.52917,4.38064 2.52916,4.38065 -5.05833,0 z"
       transform="matrix(-0.47561805,0,0,-0.37415892,226.6791,1261.339)"
       inkscape:label=""
       onmouseover="Increase the Transaction Queue by a power of 2."
       inkscape:transform-center-y="0.54632583" />
    <rect
       style="color:#000000;fill:#cccccc;fill-opacity:1;fill-rule:nonzero;stroke:#000000;stroke-width:0.98757964;stroke-linecap:butt;stroke-linejoin:miter;stroke-miterlimit:4;stroke-opacity:1;stroke-dasharray:none;stroke-dashoffset:0;marker:none;visibility:visible;display:inline;overflow:visible;enable-background:accumulate"
       id="idd2q_up2"
       width="10.060705"
       height="10.318671"
       x="254.55069"
       y="932.08521"
       inkscape:label=""
       onmouseover="Increase the Transaction Queue by a power of 2." />
    <path
       sodipodi:type="star"
       style="color:#000000;fill:#000000;fill-opacity:1;fill-rule:nonzero;stroke:#000000;stroke-width:2;stroke-linecap:butt;stroke-linejoin:miter;stroke-miterlimit:4;stroke-opacity:1;stroke-dasharray:none;stroke-dashoffset:0;marker:none;visibility:visible;display:inline;overflow:visible;enable-background:accumulate"
       id="idd2q_up"
       sodipodi:sides="3"
       sodipodi:cx="104.48446"
       sodipodi:cy="832.90851"
       sodipodi:r1="5.8408594"
       sodipodi:r2="2.9204297"
       sodipodi:arg1="2.6179939"
       sodipodi:arg2="3.6651914"
       inkscape:flatsided="false"
       inkscape:rounded="0"
       inkscape:randomized="0"
       d="m 99.426126,835.82894 2.529164,-4.38065 2.52917,-4.38064 2.52917,4.38064 2.52916,4.38065 -5.05833,0 z"
       transform="matrix(0.47561805,0,0,0.37415892,209.93472,626.67421)"
       inkscape:transform-center-y="-0.54631264"
       inkscape:label=""
       onmouseover="Increase the Transaction Queue by a power of 2." />
    <rect
       style="color:#000000;fill:#cccccc;fill-opacity:1;fill-rule:nonzero;stroke:#000000;stroke-width:0.98757964;stroke-linecap:butt;stroke-linejoin:miter;stroke-miterlimit:4;stroke-opacity:1;stroke-dasharray:none;stroke-dashoffset:0;marker:none;visibility:visible;display:inline;overflow:visible;enable-background:accumulate"
       id="idd2q_down2"
       width="10.060705"
       height="10.318671"
       x="-264.81122"
       y="-955.8938"
       inkscape:label=""
       onmouseover="Increase the Transaction Queue by a power of 2."
       transform="scale(-1,-1)" />
    <path
       sodipodi:type="star"
       style="color:#000000;fill:#000000;fill-opacity:1;fill-rule:nonzero;stroke:#000000;stroke-width:2;stroke-linecap:butt;stroke-linejoin:miter;stroke-miterlimit:4;stroke-opacity:1;stroke-dasharray:none;stroke-dashoffset:0;marker:none;visibility:visible;display:inline;overflow:visible;enable-background:accumulate"
       id="idd2q_down"
       sodipodi:sides="3"
       sodipodi:cx="104.48446"
       sodipodi:cy="832.90851"
       sodipodi:r1="5.8408594"
       sodipodi:r2="2.9204297"
       sodipodi:arg1="2.6179939"
       sodipodi:arg2="3.6651914"
       inkscape:flatsided="false"
       inkscape:rounded="0"
       inkscape:randomized="0"
       d="m 99.426126,835.82894 2.529164,-4.38065 2.52917,-4.38064 2.52917,4.38064 2.52916,4.38065 -5.05833,0 z"
       transform="matrix(-0.47561805,0,0,-0.37415892,309.45017,1261.305)"
       inkscape:label=""
       onmouseover="Increase the Transaction Queue by a power of 2."
       inkscape:transform-center-y="0.54633032" />
    <rect
       style="color:#000000;fill:#cccccc;fill-opacity:1;fill-rule:nonzero;stroke:#000000;stroke-width:0.98757964;stroke-linecap:butt;stroke-linejoin:miter;stroke-miterlimit:4;stroke-opacity:1;stroke-dasharray:none;stroke-dashoffset:0;marker:none;visibility:visible;display:inline;overflow:visible;enable-background:accumulate"
       id="idd2n_up2"
       width="10.060705"
       height="10.318671"
       x="297.40442"
       y="932.04681"
       inkscape:label=""
       onmouseover="Increase the Transaction Queue by a power of 2." />
    <path
       sodipodi:type="star"
       style="color:#000000;fill:#000000;fill-opacity:1;fill-rule:nonzero;stroke:#000000;stroke-width:2;stroke-linecap:butt;stroke-linejoin:miter;stroke-miterlimit:4;stroke-opacity:1;stroke-dasharray:none;stroke-dashoffset:0;marker:none;visibility:visible;display:inline;overflow:visible;enable-background:accumulate"
       id="idd2n_up"
       sodipodi:sides="3"
       sodipodi:cx="104.48446"
       sodipodi:cy="832.90851"
       sodipodi:r1="5.8408594"
       sodipodi:r2="2.9204297"
       sodipodi:arg1="2.6179939"
       sodipodi:arg2="3.6651914"
       inkscape:flatsided="false"
       inkscape:rounded="0"
       inkscape:randomized="0"
       d="m 99.426126,835.82894 2.529164,-4.38065 2.52917,-4.38064 2.52917,4.38064 2.52916,4.38065 -5.05833,0 z"
       transform="matrix(0.47561805,0,0,0.37415892,252.78841,626.63601)"
       inkscape:transform-center-y="-0.54632128"
       inkscape:label=""
       onmouseover="Increase the Transaction Queue by a power of 2." />
    <rect
       style="color:#000000;fill:#cccccc;fill-opacity:1;fill-rule:nonzero;stroke:#000000;stroke-width:0.98757964;stroke-linecap:butt;stroke-linejoin:miter;stroke-miterlimit:4;stroke-opacity:1;stroke-dasharray:none;stroke-dashoffset:0;marker:none;visibility:visible;display:inline;overflow:visible;enable-background:accumulate"
       id="idd2n_down2"
       width="10.060705"
       height="10.318671"
       x="-307.66495"
       y="-955.85547"
       inkscape:label=""
       onmouseover="Increase the Transaction Queue by a power of 2."
       transform="scale(-1,-1)" />
    <path
       sodipodi:type="star"
       style="color:#000000;fill:#000000;fill-opacity:1;fill-rule:nonzero;stroke:#000000;stroke-width:2;stroke-linecap:butt;stroke-linejoin:miter;stroke-miterlimit:4;stroke-opacity:1;stroke-dasharray:none;stroke-dashoffset:0;marker:none;visibility:visible;display:inline;overflow:visible;enable-background:accumulate"
       id="idd2n_down"
       sodipodi:sides="3"
       sodipodi:cx="104.48446"
       sodipodi:cy="832.90851"
       sodipodi:r1="5.8408594"
       sodipodi:r2="2.9204297"
       sodipodi:arg1="2.6179939"
       sodipodi:arg2="3.6651914"
       inkscape:flatsided="false"
       inkscape:rounded="0"
       inkscape:randomized="0"
       d="m 99.426126,835.82894 2.529164,-4.38065 2.52917,-4.38064 2.52917,4.38064 2.52916,4.38065 -5.05833,0 z"
       transform="matrix(-0.47561805,0,0,-0.37415892,352.30387,1261.2667)"
       inkscape:label=""
       onmouseover="Increase the Transaction Queue by a power of 2."
       inkscape:transform-center-y="0.54631767" />
    <rect
       style="color:#000000;fill:#cccccc;fill-opacity:1;fill-rule:nonzero;stroke:#000000;stroke-width:0.98757964;stroke-linecap:butt;stroke-linejoin:miter;stroke-miterlimit:4;stroke-opacity:1;stroke-dasharray:none;stroke-dashoffset:0;marker:none;visibility:visible;display:inline;overflow:visible;enable-background:accumulate"
       id="idd3pf_up2"
       width="10.060705"
       height="10.318671"
       x="339.35971"
       y="932.07257"
       inkscape:label=""
       onmouseover="Increase the Transaction Queue by a power of 2." />
    <path
       sodipodi:type="star"
       style="color:#000000;fill:#000000;fill-opacity:1;fill-rule:nonzero;stroke:#000000;stroke-width:2;stroke-linecap:butt;stroke-linejoin:miter;stroke-miterlimit:4;stroke-opacity:1;stroke-dasharray:none;stroke-dashoffset:0;marker:none;visibility:visible;display:inline;overflow:visible;enable-background:accumulate"
       id="idd3pf_up"
       sodipodi:sides="3"
       sodipodi:cx="104.48446"
       sodipodi:cy="832.90851"
       sodipodi:r1="5.8408594"
       sodipodi:r2="2.9204297"
       sodipodi:arg1="2.6179939"
       sodipodi:arg2="3.6651914"
       inkscape:flatsided="false"
       inkscape:rounded="0"
       inkscape:randomized="0"
       d="m 99.426126,835.82894 2.529164,-4.38065 2.52917,-4.38064 2.52917,4.38064 2.52916,4.38065 -5.05833,0 z"
       transform="matrix(0.47561805,0,0,0.37415892,294.74374,626.66151)"
       inkscape:transform-center-y="-0.54632506"
       inkscape:label=""
       onmouseover="Increase the Transaction Queue by a power of 2." />
    <rect
       style="color:#000000;fill:#cccccc;fill-opacity:1;fill-rule:nonzero;stroke:#000000;stroke-width:0.98757964;stroke-linecap:butt;stroke-linejoin:miter;stroke-miterlimit:4;stroke-opacity:1;stroke-dasharray:none;stroke-dashoffset:0;marker:none;visibility:visible;display:inline;overflow:visible;enable-background:accumulate"
       id="idd3pf_down2"
       width="10.060705"
       height="10.318671"
       x="-349.62027"
       y="-955.88116"
       inkscape:label=""
       onmouseover="Increase the Transaction Queue by a power of 2."
       transform="scale(-1,-1)" />
    <path
       sodipodi:type="star"
       style="color:#000000;fill:#000000;fill-opacity:1;fill-rule:nonzero;stroke:#000000;stroke-width:2;stroke-linecap:butt;stroke-linejoin:miter;stroke-miterlimit:4;stroke-opacity:1;stroke-dasharray:none;stroke-dashoffset:0;marker:none;visibility:visible;display:inline;overflow:visible;enable-background:accumulate"
       id="idd3pf_down"
       sodipodi:sides="3"
       sodipodi:cx="104.48446"
       sodipodi:cy="832.90851"
       sodipodi:r1="5.8408594"
       sodipodi:r2="2.9204297"
       sodipodi:arg1="2.6179939"
       sodipodi:arg2="3.6651914"
       inkscape:flatsided="false"
       inkscape:rounded="0"
       inkscape:randomized="0"
       d="m 99.426126,835.82894 2.529164,-4.38065 2.52917,-4.38064 2.52917,4.38064 2.52916,4.38065 -5.05833,0 z"
       transform="matrix(-0.47561805,0,0,-0.37415892,394.2592,1261.2923)"
       inkscape:label=""
       onmouseover="Increase the Transaction Queue by a power of 2."
       inkscape:transform-center-y="0.54633148" />
    <rect
       style="color:#000000;fill:#cccccc;fill-opacity:1;fill-rule:nonzero;stroke:#000000;stroke-width:0.98757964;stroke-linecap:butt;stroke-linejoin:miter;stroke-miterlimit:4;stroke-opacity:1;stroke-dasharray:none;stroke-dashoffset:0;marker:none;visibility:visible;display:inline;overflow:visible;enable-background:accumulate"
       id="idd3ps_up2"
       width="10.060705"
       height="10.318671"
       x="380.60239"
       y="932.04681"
       inkscape:label=""
       onmouseover="Increase the Transaction Queue by a power of 2." />
    <path
       sodipodi:type="star"
       style="color:#000000;fill:#000000;fill-opacity:1;fill-rule:nonzero;stroke:#000000;stroke-width:2;stroke-linecap:butt;stroke-linejoin:miter;stroke-miterlimit:4;stroke-opacity:1;stroke-dasharray:none;stroke-dashoffset:0;marker:none;visibility:visible;display:inline;overflow:visible;enable-background:accumulate"
       id="idd3ps_up"
       sodipodi:sides="3"
       sodipodi:cx="104.48446"
       sodipodi:cy="832.90851"
       sodipodi:r1="5.8408594"
       sodipodi:r2="2.9204297"
       sodipodi:arg1="2.6179939"
       sodipodi:arg2="3.6651914"
       inkscape:flatsided="false"
       inkscape:rounded="0"
       inkscape:randomized="0"
       d="m 99.426126,835.82894 2.529164,-4.38065 2.52917,-4.38064 2.52917,4.38064 2.52916,4.38065 -5.05833,0 z"
       transform="matrix(0.47561805,0,0,0.37415892,335.98635,626.63591)"
       inkscape:transform-center-y="-0.54632284"
       inkscape:label=""
       onmouseover="Increase the Transaction Queue by a power of 2." />
    <rect
       style="color:#000000;fill:#cccccc;fill-opacity:1;fill-rule:nonzero;stroke:#000000;stroke-width:0.98757964;stroke-linecap:butt;stroke-linejoin:miter;stroke-miterlimit:4;stroke-opacity:1;stroke-dasharray:none;stroke-dashoffset:0;marker:none;visibility:visible;display:inline;overflow:visible;enable-background:accumulate"
       id="idd3ps_down2"
       width="10.060705"
       height="10.318671"
       x="-390.86292"
       y="-955.85541"
       inkscape:label=""
       onmouseover="Increase the Transaction Queue by a power of 2."
       transform="scale(-1,-1)" />
    <path
       sodipodi:type="star"
       style="color:#000000;fill:#000000;fill-opacity:1;fill-rule:nonzero;stroke:#000000;stroke-width:2;stroke-linecap:butt;stroke-linejoin:miter;stroke-miterlimit:4;stroke-opacity:1;stroke-dasharray:none;stroke-dashoffset:0;marker:none;visibility:visible;display:inline;overflow:visible;enable-background:accumulate"
       id="idd3ps_down"
       sodipodi:sides="3"
       sodipodi:cx="104.48446"
       sodipodi:cy="832.90851"
       sodipodi:r1="5.8408594"
       sodipodi:r2="2.9204297"
       sodipodi:arg1="2.6179939"
       sodipodi:arg2="3.6651914"
       inkscape:flatsided="false"
       inkscape:rounded="0"
       inkscape:randomized="0"
       d="m 99.426126,835.82894 2.529164,-4.38065 2.52917,-4.38064 2.52917,4.38064 2.52916,4.38065 -5.05833,0 z"
       transform="matrix(-0.47561805,0,0,-0.37415892,435.5018,1261.2667)"
       inkscape:label=""
       onmouseover="Increase the Transaction Queue by a power of 2."
       inkscape:transform-center-y="0.5463261" />
    <rect
       style="color:#000000;fill:#cccccc;fill-opacity:1;fill-rule:nonzero;stroke:#000000;stroke-width:0.98757964;stroke-linecap:butt;stroke-linejoin:miter;stroke-miterlimit:4;stroke-opacity:1;stroke-dasharray:none;stroke-dashoffset:0;marker:none;visibility:visible;display:inline;overflow:visible;enable-background:accumulate"
       id="idd3n_up2"
       width="10.060705"
       height="10.318671"
       x="420.99173"
       y="932.12671"
       inkscape:label=""
       onmouseover="Increase the Transaction Queue by a power of 2." />
    <path
       sodipodi:type="star"
       style="color:#000000;fill:#000000;fill-opacity:1;fill-rule:nonzero;stroke:#000000;stroke-width:2;stroke-linecap:butt;stroke-linejoin:miter;stroke-miterlimit:4;stroke-opacity:1;stroke-dasharray:none;stroke-dashoffset:0;marker:none;visibility:visible;display:inline;overflow:visible;enable-background:accumulate"
       id="idd3n_up"
       sodipodi:sides="3"
       sodipodi:cx="104.48446"
       sodipodi:cy="832.90851"
       sodipodi:r1="5.8408594"
       sodipodi:r2="2.9204297"
       sodipodi:arg1="2.6179939"
       sodipodi:arg2="3.6651914"
       inkscape:flatsided="false"
       inkscape:rounded="0"
       inkscape:randomized="0"
       d="m 99.426126,835.82894 2.529164,-4.38065 2.52917,-4.38064 2.52917,4.38064 2.52916,4.38065 -5.05833,0 z"
       transform="matrix(0.47561805,0,0,0.37415892,376.37575,626.71571)"
       inkscape:transform-center-y="-0.54632128"
       inkscape:label=""
       onmouseover="Increase the Transaction Queue by a power of 2." />
    <rect
       style="color:#000000;fill:#cccccc;fill-opacity:1;fill-rule:nonzero;stroke:#000000;stroke-width:0.98757964;stroke-linecap:butt;stroke-linejoin:miter;stroke-miterlimit:4;stroke-opacity:1;stroke-dasharray:none;stroke-dashoffset:0;marker:none;visibility:visible;display:inline;overflow:visible;enable-background:accumulate"
       id="idd3n_down2"
       width="10.060705"
       height="10.318671"
       x="-431.25229"
       y="-955.9353"
       inkscape:label=""
       onmouseover="Increase the Transaction Queue by a power of 2."
       transform="scale(-1,-1)" />
    <path
       sodipodi:type="star"
       style="color:#000000;fill:#000000;fill-opacity:1;fill-rule:nonzero;stroke:#000000;stroke-width:2;stroke-linecap:butt;stroke-linejoin:miter;stroke-miterlimit:4;stroke-opacity:1;stroke-dasharray:none;stroke-dashoffset:0;marker:none;visibility:visible;display:inline;overflow:visible;enable-background:accumulate"
       id="idd3n_down"
       sodipodi:sides="3"
       sodipodi:cx="104.48446"
       sodipodi:cy="832.90851"
       sodipodi:r1="5.8408594"
       sodipodi:r2="2.9204297"
       sodipodi:arg1="2.6179939"
       sodipodi:arg2="3.6651914"
       inkscape:flatsided="false"
       inkscape:rounded="0"
       inkscape:randomized="0"
       d="m 99.426126,835.82894 2.529164,-4.38065 2.52917,-4.38064 2.52917,4.38064 2.52916,4.38065 -5.05833,0 z"
       transform="matrix(-0.47561805,0,0,-0.37415892,475.89121,1261.3465)"
       inkscape:label=""
       onmouseover="Increase the Transaction Queue by a power of 2."
       inkscape:transform-center-y="0.54631767" />
    <rect
       style="color:#000000;fill:#cccccc;fill-opacity:1;fill-rule:nonzero;stroke:#000000;stroke-width:0.98757964;stroke-linecap:butt;stroke-linejoin:miter;stroke-miterlimit:4;stroke-opacity:1;stroke-dasharray:none;stroke-dashoffset:0;marker:none;visibility:visible;display:inline;overflow:visible;enable-background:accumulate"
       id="idd4w_up2"
       width="10.060705"
       height="10.318671"
       x="462.84253"
       y="932.11908"
       inkscape:label=""
       onmouseover="Increase the Transaction Queue by a power of 2." />
    <path
       sodipodi:type="star"
       style="color:#000000;fill:#000000;fill-opacity:1;fill-rule:nonzero;stroke:#000000;stroke-width:2;stroke-linecap:butt;stroke-linejoin:miter;stroke-miterlimit:4;stroke-opacity:1;stroke-dasharray:none;stroke-dashoffset:0;marker:none;visibility:visible;display:inline;overflow:visible;enable-background:accumulate"
       id="idd4w_up"
       sodipodi:sides="3"
       sodipodi:cx="104.48446"
       sodipodi:cy="832.90851"
       sodipodi:r1="5.8408594"
       sodipodi:r2="2.9204297"
       sodipodi:arg1="2.6179939"
       sodipodi:arg2="3.6651914"
       inkscape:flatsided="false"
       inkscape:rounded="0"
       inkscape:randomized="0"
       d="m 99.426126,835.82894 2.529164,-4.38065 2.52917,-4.38064 2.52917,4.38064 2.52916,4.38065 -5.05833,0 z"
       transform="matrix(0.47561805,0,0,0.37415892,418.06396,626.70811)"
       inkscape:transform-center-y="-0.54632058"
       inkscape:label=""
       onmouseover="Increase the Transaction Queue by a power of 2." />
    <rect
       style="color:#000000;fill:#cccccc;fill-opacity:1;fill-rule:nonzero;stroke:#000000;stroke-width:0.98757964;stroke-linecap:butt;stroke-linejoin:miter;stroke-miterlimit:4;stroke-opacity:1;stroke-dasharray:none;stroke-dashoffset:0;marker:none;visibility:visible;display:inline;overflow:visible;enable-background:accumulate"
       id="idd4w_down2"
       width="10.060705"
       height="10.318671"
       x="-472.94049"
       y="-955.92761"
       inkscape:label=""
       onmouseover="Increase the Transaction Queue by a power of 2."
       transform="scale(-1,-1)" />
    <path
       sodipodi:type="star"
       style="color:#000000;fill:#000000;fill-opacity:1;fill-rule:nonzero;stroke:#000000;stroke-width:2;stroke-linecap:butt;stroke-linejoin:miter;stroke-miterlimit:4;stroke-opacity:1;stroke-dasharray:none;stroke-dashoffset:0;marker:none;visibility:visible;display:inline;overflow:visible;enable-background:accumulate"
       id="idd4w_down"
       sodipodi:sides="3"
       sodipodi:cx="104.48446"
       sodipodi:cy="832.90851"
       sodipodi:r1="5.8408594"
       sodipodi:r2="2.9204297"
       sodipodi:arg1="2.6179939"
       sodipodi:arg2="3.6651914"
       inkscape:flatsided="false"
       inkscape:rounded="0"
       inkscape:randomized="0"
       d="m 99.426126,835.82894 2.529164,-4.38065 2.52917,-4.38064 2.52917,4.38064 2.52916,4.38065 -5.05833,0 z"
       transform="matrix(-0.47561805,0,0,-0.37415892,517.57942,1261.3388)"
       inkscape:label=""
       onmouseover="Increase the Transaction Queue by a power of 2."
       inkscape:transform-center-y="0.54631916" />
    <rect
       style="color:#000000;fill:#cccccc;fill-opacity:1;fill-rule:nonzero;stroke:#000000;stroke-width:0.98757964;stroke-linecap:butt;stroke-linejoin:miter;stroke-miterlimit:4;stroke-opacity:1;stroke-dasharray:none;stroke-dashoffset:0;marker:none;visibility:visible;display:inline;overflow:visible;enable-background:accumulate"
       id="idd4r_up2"
       width="10.060705"
       height="10.318671"
       x="505.28348"
       y="932.15741"
       inkscape:label=""
       onmouseover="Increase the Transaction Queue by a power of 2." />
    <path
       sodipodi:type="star"
       style="color:#000000;fill:#000000;fill-opacity:1;fill-rule:nonzero;stroke:#000000;stroke-width:2;stroke-linecap:butt;stroke-linejoin:miter;stroke-miterlimit:4;stroke-opacity:1;stroke-dasharray:none;stroke-dashoffset:0;marker:none;visibility:visible;display:inline;overflow:visible;enable-background:accumulate"
       id="idd4r_up"
       sodipodi:sides="3"
       sodipodi:cx="104.48446"
       sodipodi:cy="832.90851"
       sodipodi:r1="5.8408594"
       sodipodi:r2="2.9204297"
       sodipodi:arg1="2.6179939"
       sodipodi:arg2="3.6651914"
       inkscape:flatsided="false"
       inkscape:rounded="0"
       inkscape:randomized="0"
       d="m 99.426126,835.82894 2.529164,-4.38065 2.52917,-4.38064 2.52917,4.38064 2.52916,4.38065 -5.05833,0 z"
       transform="matrix(0.47561805,0,0,0.37415892,460.66754,626.74651)"
       inkscape:transform-center-y="-0.54631114"
       inkscape:label=""
       onmouseover="Increase the Transaction Queue by a power of 2." />
    <rect
       style="color:#000000;fill:#cccccc;fill-opacity:1;fill-rule:nonzero;stroke:#000000;stroke-width:0.98757964;stroke-linecap:butt;stroke-linejoin:miter;stroke-miterlimit:4;stroke-opacity:1;stroke-dasharray:none;stroke-dashoffset:0;marker:none;visibility:visible;display:inline;overflow:visible;enable-background:accumulate"
       id="idd4r_down2"
       width="10.060705"
       height="10.318671"
       x="-515.54407"
       y="-955.96606"
       inkscape:label=""
       onmouseover="Increase the Transaction Queue by a power of 2."
       transform="scale(-1,-1)" />
    <path
       sodipodi:type="star"
       style="color:#000000;fill:#000000;fill-opacity:1;fill-rule:nonzero;stroke:#000000;stroke-width:2;stroke-linecap:butt;stroke-linejoin:miter;stroke-miterlimit:4;stroke-opacity:1;stroke-dasharray:none;stroke-dashoffset:0;marker:none;visibility:visible;display:inline;overflow:visible;enable-background:accumulate"
       id="idd4r_down"
       sodipodi:sides="3"
       sodipodi:cx="104.48446"
       sodipodi:cy="832.90851"
       sodipodi:r1="5.8408594"
       sodipodi:r2="2.9204297"
       sodipodi:arg1="2.6179939"
       sodipodi:arg2="3.6651914"
       inkscape:flatsided="false"
       inkscape:rounded="0"
       inkscape:randomized="0"
       d="m 99.426126,835.82894 2.529164,-4.38065 2.52917,-4.38064 2.52917,4.38064 2.52916,4.38065 -5.05833,0 z"
       transform="matrix(-0.47561805,0,0,-0.37415892,560.18299,1261.3773)"
       inkscape:label=""
       onmouseover="Increase the Transaction Queue by a power of 2."
       inkscape:transform-center-y="0.54632583" />
    <rect
       style="color:#000000;fill:#cccccc;fill-opacity:1;fill-rule:nonzero;stroke:#000000;stroke-width:0.98757964;stroke-linecap:butt;stroke-linejoin:miter;stroke-miterlimit:4;stroke-opacity:1;stroke-dasharray:none;stroke-dashoffset:0;marker:none;visibility:visible;display:inline;overflow:visible;enable-background:accumulate"
       id="idd5_up2"
       width="10.060705"
       height="10.318671"
       x="545.97412"
       y="932.12677"
       inkscape:label=""
       onmouseover="Increase the Transaction Queue by a power of 2." />
    <path
       sodipodi:type="star"
       style="color:#000000;fill:#000000;fill-opacity:1;fill-rule:nonzero;stroke:#000000;stroke-width:2;stroke-linecap:butt;stroke-linejoin:miter;stroke-miterlimit:4;stroke-opacity:1;stroke-dasharray:none;stroke-dashoffset:0;marker:none;visibility:visible;display:inline;overflow:visible;enable-background:accumulate"
       id="idd5_up"
       sodipodi:sides="3"
       sodipodi:cx="104.48446"
       sodipodi:cy="832.90851"
       sodipodi:r1="5.8408594"
       sodipodi:r2="2.9204297"
       sodipodi:arg1="2.6179939"
       sodipodi:arg2="3.6651914"
       inkscape:flatsided="false"
       inkscape:rounded="0"
       inkscape:randomized="0"
       d="m 99.426126,835.82894 2.529164,-4.38065 2.52917,-4.38064 2.52917,4.38064 2.52916,4.38065 -5.05833,0 z"
       transform="matrix(0.47561805,0,0,0.37415892,501.35818,626.71571)"
       inkscape:transform-center-y="-0.54631264"
       inkscape:label=""
       onmouseover="Increase the Transaction Queue by a power of 2." />
    <rect
       style="color:#000000;fill:#cccccc;fill-opacity:1;fill-rule:nonzero;stroke:#000000;stroke-width:0.98757964;stroke-linecap:butt;stroke-linejoin:miter;stroke-miterlimit:4;stroke-opacity:1;stroke-dasharray:none;stroke-dashoffset:0;marker:none;visibility:visible;display:inline;overflow:visible;enable-background:accumulate"
       id="idd5_down2"
       width="10.060705"
       height="10.318671"
       x="-556.23474"
       y="-955.9353"
       inkscape:label=""
       onmouseover="Increase the Transaction Queue by a power of 2."
       transform="scale(-1,-1)" />
    <path
       sodipodi:type="star"
       style="color:#000000;fill:#000000;fill-opacity:1;fill-rule:nonzero;stroke:#000000;stroke-width:2;stroke-linecap:butt;stroke-linejoin:miter;stroke-miterlimit:4;stroke-opacity:1;stroke-dasharray:none;stroke-dashoffset:0;marker:none;visibility:visible;display:inline;overflow:visible;enable-background:accumulate"
       id="idd5_down"
       sodipodi:sides="3"
       sodipodi:cx="104.48446"
       sodipodi:cy="832.90851"
       sodipodi:r1="5.8408594"
       sodipodi:r2="2.9204297"
       sodipodi:arg1="2.6179939"
       sodipodi:arg2="3.6651914"
       inkscape:flatsided="false"
       inkscape:rounded="0"
       inkscape:randomized="0"
       d="m 99.426126,835.82894 2.529164,-4.38065 2.52917,-4.38064 2.52917,4.38064 2.52916,4.38065 -5.05833,0 z"
       transform="matrix(-0.47561805,0,0,-0.37415892,600.87363,1261.3465)"
       inkscape:label=""
       onmouseover="Increase the Transaction Queue by a power of 2."
       inkscape:transform-center-y="0.54633032" />
    <rect
       style="color:#000000;fill:#cccccc;fill-opacity:1;fill-rule:nonzero;stroke:#000000;stroke-width:0.98757964;stroke-linecap:butt;stroke-linejoin:miter;stroke-miterlimit:4;stroke-opacity:1;stroke-dasharray:none;stroke-dashoffset:0;marker:none;visibility:visible;display:inline;overflow:visible;enable-background:accumulate"
       id="idd6_up2"
       width="10.060705"
       height="10.318671"
       x="587.72473"
       y="932.11908"
       inkscape:label=""
       onmouseover="Increase the Transaction Queue by a power of 2." />
    <path
       sodipodi:type="star"
       style="color:#000000;fill:#000000;fill-opacity:1;fill-rule:nonzero;stroke:#000000;stroke-width:2;stroke-linecap:butt;stroke-linejoin:miter;stroke-miterlimit:4;stroke-opacity:1;stroke-dasharray:none;stroke-dashoffset:0;marker:none;visibility:visible;display:inline;overflow:visible;enable-background:accumulate"
       id="idd6_up"
       sodipodi:sides="3"
       sodipodi:cx="104.48446"
       sodipodi:cy="832.90851"
       sodipodi:r1="5.8408594"
       sodipodi:r2="2.9204297"
       sodipodi:arg1="2.6179939"
       sodipodi:arg2="3.6651914"
       inkscape:flatsided="false"
       inkscape:rounded="0"
       inkscape:randomized="0"
       d="m 99.426126,835.82894 2.529164,-4.38065 2.52917,-4.38064 2.52917,4.38064 2.52916,4.38065 -5.05833,0 z"
       transform="matrix(0.47561805,0,0,0.37415892,543.10867,626.70811)"
       inkscape:transform-center-y="-0.54632128"
       inkscape:label=""
       onmouseover="Increase the Transaction Queue by a power of 2." />
    <rect
       style="color:#000000;fill:#cccccc;fill-opacity:1;fill-rule:nonzero;stroke:#000000;stroke-width:0.98757964;stroke-linecap:butt;stroke-linejoin:miter;stroke-miterlimit:4;stroke-opacity:1;stroke-dasharray:none;stroke-dashoffset:0;marker:none;visibility:visible;display:inline;overflow:visible;enable-background:accumulate"
       id="idd6_down2"
       width="10.060705"
       height="10.318671"
       x="-597.98523"
       y="-955.92761"
       inkscape:label=""
       onmouseover="Increase the Transaction Queue by a power of 2."
       transform="scale(-1,-1)" />
    <path
       sodipodi:type="star"
       style="color:#000000;fill:#000000;fill-opacity:1;fill-rule:nonzero;stroke:#000000;stroke-width:2;stroke-linecap:butt;stroke-linejoin:miter;stroke-miterlimit:4;stroke-opacity:1;stroke-dasharray:none;stroke-dashoffset:0;marker:none;visibility:visible;display:inline;overflow:visible;enable-background:accumulate"
       id="idd6_down"
       sodipodi:sides="3"
       sodipodi:cx="104.48446"
       sodipodi:cy="832.90851"
       sodipodi:r1="5.8408594"
       sodipodi:r2="2.9204297"
       sodipodi:arg1="2.6179939"
       sodipodi:arg2="3.6651914"
       inkscape:flatsided="false"
       inkscape:rounded="0"
       inkscape:randomized="0"
       d="m 99.426126,835.82894 2.529164,-4.38065 2.52917,-4.38064 2.52917,4.38064 2.52916,4.38065 -5.05833,0 z"
       transform="matrix(-0.47561805,0,0,-0.37415892,642.62413,1261.3389)"
       inkscape:label=""
       onmouseover="Increase the Transaction Queue by a power of 2."
       inkscape:transform-center-y="0.54631767" />
    <rect
       style="color:#000000;fill:#cccccc;fill-opacity:1;fill-rule:nonzero;stroke:#000000;stroke-width:0.98757964;stroke-linecap:butt;stroke-linejoin:miter;stroke-miterlimit:4;stroke-opacity:1;stroke-dasharray:none;stroke-dashoffset:0;marker:none;visibility:visible;display:inline;overflow:visible;enable-background:accumulate"
       id="idd6l_up2"
       width="10.060705"
       height="10.318671"
       x="629.37939"
       y="932.1347"
       inkscape:label=""
       onmouseover="Increase the Transaction Queue by a power of 2." />
    <path
       sodipodi:type="star"
       style="color:#000000;fill:#000000;fill-opacity:1;fill-rule:nonzero;stroke:#000000;stroke-width:2;stroke-linecap:butt;stroke-linejoin:miter;stroke-miterlimit:4;stroke-opacity:1;stroke-dasharray:none;stroke-dashoffset:0;marker:none;visibility:visible;display:inline;overflow:visible;enable-background:accumulate"
       id="idd6l_up"
       sodipodi:sides="3"
       sodipodi:cx="104.48446"
       sodipodi:cy="832.90851"
       sodipodi:r1="5.8408594"
       sodipodi:r2="2.9204297"
       sodipodi:arg1="2.6179939"
       sodipodi:arg2="3.6651914"
       inkscape:flatsided="false"
       inkscape:rounded="0"
       inkscape:randomized="0"
       d="m 99.426126,835.82894 2.529164,-4.38065 2.52917,-4.38064 2.52917,4.38064 2.52916,4.38065 -5.05833,0 z"
       transform="matrix(0.47561805,0,0,0.37415892,584.76338,626.72381)"
       inkscape:transform-center-y="-0.54632506"
       inkscape:label=""
       onmouseover="Increase the Transaction Queue by a power of 2." />
    <rect
       style="color:#000000;fill:#cccccc;fill-opacity:1;fill-rule:nonzero;stroke:#000000;stroke-width:0.98757964;stroke-linecap:butt;stroke-linejoin:miter;stroke-miterlimit:4;stroke-opacity:1;stroke-dasharray:none;stroke-dashoffset:0;marker:none;visibility:visible;display:inline;overflow:visible;enable-background:accumulate"
       id="idd6l_down2"
       width="10.060705"
       height="10.318671"
       x="-639.63995"
       y="-955.94336"
       inkscape:label=""
       onmouseover="Increase the Transaction Queue by a power of 2."
       transform="scale(-1,-1)" />
    <path
       sodipodi:type="star"
       style="color:#000000;fill:#000000;fill-opacity:1;fill-rule:nonzero;stroke:#000000;stroke-width:2;stroke-linecap:butt;stroke-linejoin:miter;stroke-miterlimit:4;stroke-opacity:1;stroke-dasharray:none;stroke-dashoffset:0;marker:none;visibility:visible;display:inline;overflow:visible;enable-background:accumulate"
       id="idd6l_down"
       sodipodi:sides="3"
       sodipodi:cx="104.48446"
       sodipodi:cy="832.90851"
       sodipodi:r1="5.8408594"
       sodipodi:r2="2.9204297"
       sodipodi:arg1="2.6179939"
       sodipodi:arg2="3.6651914"
       inkscape:flatsided="false"
       inkscape:rounded="0"
       inkscape:randomized="0"
       d="m 99.426126,835.82894 2.529164,-4.38065 2.52917,-4.38064 2.52917,4.38064 2.52916,4.38065 -5.05833,0 z"
       transform="matrix(-0.47561805,0,0,-0.37415892,684.27884,1261.3544)"
       inkscape:label=""
       onmouseover="Increase the Transaction Queue by a power of 2."
       inkscape:transform-center-y="0.54633148" />
    <rect
       style="color:#000000;fill:#cccccc;fill-opacity:1;fill-rule:nonzero;stroke:#000000;stroke-width:0.98757964;stroke-linecap:butt;stroke-linejoin:miter;stroke-miterlimit:4;stroke-opacity:1;stroke-dasharray:none;stroke-dashoffset:0;marker:none;visibility:visible;display:inline;overflow:visible;enable-background:accumulate"
       id="idd7_up2"
       width="10.060705"
       height="10.318671"
       x="671.79651"
       y="932.12567"
       inkscape:label=""
       onmouseover="Increase the Transaction Queue by a power of 2." />
    <path
       sodipodi:type="star"
       style="color:#000000;fill:#000000;fill-opacity:1;fill-rule:nonzero;stroke:#000000;stroke-width:2;stroke-linecap:butt;stroke-linejoin:miter;stroke-miterlimit:4;stroke-opacity:1;stroke-dasharray:none;stroke-dashoffset:0;marker:none;visibility:visible;display:inline;overflow:visible;enable-background:accumulate"
       id="idd7_up"
       sodipodi:sides="3"
       sodipodi:cx="104.48446"
       sodipodi:cy="832.90851"
       sodipodi:r1="5.8408594"
       sodipodi:r2="2.9204297"
       sodipodi:arg1="2.6179939"
       sodipodi:arg2="3.6651914"
       inkscape:flatsided="false"
       inkscape:rounded="0"
       inkscape:randomized="0"
       d="m 99.426126,835.82894 2.529164,-4.38065 2.52917,-4.38064 2.52917,4.38064 2.52916,4.38065 -5.05833,0 z"
       transform="matrix(0.47561805,0,0,0.37415892,627.18046,626.71461)"
       inkscape:transform-center-y="-0.54632284"
       inkscape:label=""
       onmouseover="Increase the Transaction Queue by a power of 2." />
    <rect
       style="color:#000000;fill:#cccccc;fill-opacity:1;fill-rule:nonzero;stroke:#000000;stroke-width:0.98757964;stroke-linecap:butt;stroke-linejoin:miter;stroke-miterlimit:4;stroke-opacity:1;stroke-dasharray:none;stroke-dashoffset:0;marker:none;visibility:visible;display:inline;overflow:visible;enable-background:accumulate"
       id="idd7_down2"
       width="10.060705"
       height="10.318671"
       x="-682.05701"
       y="-955.9342"
       inkscape:label=""
       onmouseover="Increase the Transaction Queue by a power of 2."
       transform="scale(-1,-1)" />
    <path
       sodipodi:type="star"
       style="color:#000000;fill:#000000;fill-opacity:1;fill-rule:nonzero;stroke:#000000;stroke-width:2;stroke-linecap:butt;stroke-linejoin:miter;stroke-miterlimit:4;stroke-opacity:1;stroke-dasharray:none;stroke-dashoffset:0;marker:none;visibility:visible;display:inline;overflow:visible;enable-background:accumulate"
       id="idd7_down"
       sodipodi:sides="3"
       sodipodi:cx="104.48446"
       sodipodi:cy="832.90851"
       sodipodi:r1="5.8408594"
       sodipodi:r2="2.9204297"
       sodipodi:arg1="2.6179939"
       sodipodi:arg2="3.6651914"
       inkscape:flatsided="false"
       inkscape:rounded="0"
       inkscape:randomized="0"
       d="m 99.426126,835.82894 2.529164,-4.38065 2.52917,-4.38064 2.52917,4.38064 2.52916,4.38065 -5.05833,0 z"
       transform="matrix(-0.47561805,0,0,-0.37415892,726.69591,1261.3453)"
       inkscape:label=""
       onmouseover="Increase the Transaction Queue by a power of 2."
       inkscape:transform-center-y="0.5463261" />
    <rect
       style="color:#000000;fill:#cccccc;fill-opacity:1;fill-rule:nonzero;stroke:#000000;stroke-width:0.98757964;stroke-linecap:butt;stroke-linejoin:miter;stroke-miterlimit:4;stroke-opacity:1;stroke-dasharray:none;stroke-dashoffset:0;marker:none;visibility:visible;display:inline;overflow:visible;enable-background:accumulate"
       id="vdd_up2"
       width="10.060705"
       height="10.318671"
       x="713.23376"
       y="932.11908"
       inkscape:label=""
       onmouseover="Increase the Transaction Queue by a power of 2." />
    <path
       sodipodi:type="star"
       style="color:#000000;fill:#000000;fill-opacity:1;fill-rule:nonzero;stroke:#000000;stroke-width:2;stroke-linecap:butt;stroke-linejoin:miter;stroke-miterlimit:4;stroke-opacity:1;stroke-dasharray:none;stroke-dashoffset:0;marker:none;visibility:visible;display:inline;overflow:visible;enable-background:accumulate"
       id="vdd_up"
       sodipodi:sides="3"
       sodipodi:cx="104.48446"
       sodipodi:cy="832.90851"
       sodipodi:r1="5.8408594"
       sodipodi:r2="2.9204297"
       sodipodi:arg1="2.6179939"
       sodipodi:arg2="3.6651914"
       inkscape:flatsided="false"
       inkscape:rounded="0"
       inkscape:randomized="0"
       d="m 99.426126,835.82894 2.529164,-4.38065 2.52917,-4.38064 2.52917,4.38064 2.52916,4.38065 -5.05833,0 z"
       transform="matrix(0.47561805,0,0,0.37415892,668.61774,626.70811)"
       inkscape:transform-center-y="-0.54632128"
       inkscape:label=""
       onmouseover="Increase the Transaction Queue by a power of 2." />
    <rect
       style="color:#000000;fill:#cccccc;fill-opacity:1;fill-rule:nonzero;stroke:#000000;stroke-width:0.98757964;stroke-linecap:butt;stroke-linejoin:miter;stroke-miterlimit:4;stroke-opacity:1;stroke-dasharray:none;stroke-dashoffset:0;marker:none;visibility:visible;display:inline;overflow:visible;enable-background:accumulate"
       id="vdd_down2"
       width="10.060705"
       height="10.318671"
       x="-723.49438"
       y="-955.92761"
       inkscape:label=""
       onmouseover="Increase the Transaction Queue by a power of 2."
       transform="scale(-1,-1)" />
    <path
       sodipodi:type="star"
       style="color:#000000;fill:#000000;fill-opacity:1;fill-rule:nonzero;stroke:#000000;stroke-width:2;stroke-linecap:butt;stroke-linejoin:miter;stroke-miterlimit:4;stroke-opacity:1;stroke-dasharray:none;stroke-dashoffset:0;marker:none;visibility:visible;display:inline;overflow:visible;enable-background:accumulate"
       id="vdd_down"
       sodipodi:sides="3"
       sodipodi:cx="104.48446"
       sodipodi:cy="832.90851"
       sodipodi:r1="5.8408594"
       sodipodi:r2="2.9204297"
       sodipodi:arg1="2.6179939"
       sodipodi:arg2="3.6651914"
       inkscape:flatsided="false"
       inkscape:rounded="0"
       inkscape:randomized="0"
       d="m 99.426126,835.82894 2.529164,-4.38065 2.52917,-4.38064 2.52917,4.38064 2.52916,4.38065 -5.05833,0 z"
       transform="matrix(-0.47561805,0,0,-0.37415892,768.1332,1261.3389)"
       inkscape:label=""
       onmouseover="Increase the Transaction Queue by a power of 2."
       inkscape:transform-center-y="0.54631767" />
    <text
       xml:space="preserve"
       style="font-size:40px;font-style:normal;font-weight:normal;line-height:125%;letter-spacing:0px;word-spacing:0px;fill:#000000;fill-opacity:1;stroke:none;font-family:Sans"
       x="168.03499"
       y="928.48071"
       id="idd1_text"
       class="power_parameters"
       sodipodi:linespacing="125%"
       inkscape:label="#text3954"><tspan
         sodipodi:role="line"
         id="tspan3956"
         x="168.03499"
         y="928.48071"
         style="font-size:9.19728851px;font-style:normal;font-variant:normal;font-weight:normal;font-stretch:normal;font-family:Calibri;-inkscape-font-specification:Calibri">IDD1</tspan></text>
    <text
       xml:space="preserve"
       style="font-size:40px;font-style:normal;font-weight:normal;line-height:125%;letter-spacing:0px;word-spacing:0px;fill:#000000;fill-opacity:1;stroke:none;font-family:Sans"
       x="249.23819"
       y="928.48071"
       id="idd2q_text"
       class="power_parameters"
       sodipodi:linespacing="125%"
       inkscape:label="#text3954-1"><tspan
         sodipodi:role="line"
         id="tspan3956-7"
         x="249.23819"
         y="928.48071"
         style="font-size:9.19728851px;font-style:normal;font-variant:normal;font-weight:normal;font-stretch:normal;font-family:Calibri;-inkscape-font-specification:Calibri">IDD2Q</tspan></text>
    <text
       xml:space="preserve"
       style="font-size:40px;font-style:normal;font-weight:normal;line-height:125%;letter-spacing:0px;word-spacing:0px;fill:#000000;fill-opacity:1;stroke:none;font-family:Sans"
       x="291.46716"
       y="928.48071"
       id="idd2n_text"
       class="power_parameters"
       sodipodi:linespacing="125%"
       inkscape:label="#text3954-4"><tspan
         sodipodi:role="line"
         id="tspan3956-0"
         x="291.46716"
         y="928.48071"
         style="font-size:9.19728851px;font-style:normal;font-variant:normal;font-weight:normal;font-stretch:normal;font-family:Calibri;-inkscape-font-specification:Calibri">IDD2N</tspan></text>
    <text
       xml:space="preserve"
       style="font-size:40px;font-style:normal;font-weight:normal;line-height:125%;letter-spacing:0px;word-spacing:0px;fill:#000000;fill-opacity:1;stroke:none;font-family:Sans"
       x="331.24142"
       y="928.48071"
       id="idd3pf_text"
       class="power_parameters"
       sodipodi:linespacing="125%"
       inkscape:label="#text3954-9"><tspan
         sodipodi:role="line"
         id="tspan3956-4"
         x="331.24142"
         y="928.48071"
         style="font-size:9.19728851px;font-style:normal;font-variant:normal;font-weight:normal;font-stretch:normal;font-family:Calibri;-inkscape-font-specification:Calibri">IDD3PF</tspan></text>
    <text
       xml:space="preserve"
       style="font-size:40px;font-style:normal;font-weight:normal;line-height:125%;letter-spacing:0px;word-spacing:0px;fill:#000000;fill-opacity:1;stroke:none;font-family:Sans"
       x="372.57724"
       y="928.48071"
       id="idd3ps_text"
       class="power_parameters"
       sodipodi:linespacing="125%"
       inkscape:label="#text3954-8"><tspan
         sodipodi:role="line"
         id="tspan3956-8"
         x="372.57724"
         y="928.48071"
         style="font-size:9.19728851px;font-style:normal;font-variant:normal;font-weight:normal;font-stretch:normal;font-family:Calibri;-inkscape-font-specification:Calibri">IDD3PS</tspan></text>
    <text
       xml:space="preserve"
       style="font-size:40px;font-style:normal;font-weight:normal;line-height:125%;letter-spacing:0px;word-spacing:0px;fill:#000000;fill-opacity:1;stroke:none;font-family:Sans"
       x="415.65176"
       y="928.48071"
       id="idd3n_text"
       class="power_parameters"
       sodipodi:linespacing="125%"
       inkscape:label="#text3954-2"><tspan
         sodipodi:role="line"
         id="tspan3956-45"
         x="415.65176"
         y="928.48071"
         style="font-size:9.19728851px;font-style:normal;font-variant:normal;font-weight:normal;font-stretch:normal;font-family:Calibri;-inkscape-font-specification:Calibri">IDD3N</tspan></text>
    <text
       xml:space="preserve"
       style="font-size:40px;font-style:normal;font-weight:normal;line-height:125%;letter-spacing:0px;word-spacing:0px;fill:#000000;fill-opacity:1;stroke:none;font-family:Sans"
       x="500.80829"
       y="928.48071"
       id="idd4r_text"
       class="power_parameters"
       sodipodi:linespacing="125%"
       inkscape:label="#text3954-5"><tspan
         sodipodi:role="line"
         id="tspan3956-1"
         x="500.80829"
         y="928.48071"
         style="font-size:9.19728851px;font-style:normal;font-variant:normal;font-weight:normal;font-stretch:normal;font-family:Calibri;-inkscape-font-specification:Calibri">IDD4R</tspan></text>
    <text
       xml:space="preserve"
       style="font-size:40px;font-style:normal;font-weight:normal;line-height:125%;letter-spacing:0px;word-spacing:0px;fill:#000000;fill-opacity:1;stroke:none;font-family:Sans"
       x="455.88297"
       y="928.48071"
       id="idd4w_text"
       class="power_parameters"
       sodipodi:linespacing="125%"
       inkscape:label="#text3954-7"><tspan
         sodipodi:role="line"
         id="tspan3956-11"
         x="455.88297"
         y="928.48071"
         style="font-size:9.19728851px;font-style:normal;font-variant:normal;font-weight:normal;font-stretch:normal;font-family:Calibri;-inkscape-font-specification:Calibri">IDD4W</tspan></text>
    <text
       xml:space="preserve"
       style="font-size:40px;font-style:normal;font-weight:normal;line-height:125%;letter-spacing:0px;word-spacing:0px;fill:#000000;fill-opacity:1;stroke:none;font-family:Sans"
       x="543.11005"
       y="928.48071"
       id="idd5_text"
       class="power_parameters"
       sodipodi:linespacing="125%"
       inkscape:label="#text3954-5-7"><tspan
         sodipodi:role="line"
         id="tspan3956-1-6"
         x="543.11005"
         y="928.48071"
         style="font-size:9.19728851px;font-style:normal;font-variant:normal;font-weight:normal;font-stretch:normal;font-family:Calibri;-inkscape-font-specification:Calibri">IDD5</tspan></text>
    <text
       xml:space="preserve"
       style="font-size:40px;font-style:normal;font-weight:normal;line-height:125%;letter-spacing:0px;word-spacing:0px;fill:#000000;fill-opacity:1;stroke:none;font-family:Sans"
       x="584.83093"
       y="928.48071"
       id="idd6_text"
       class="power_parameters"
       sodipodi:linespacing="125%"
       inkscape:label="#text3954-5-1"><tspan
         sodipodi:role="line"
         id="tspan3956-1-4"
         x="584.83093"
         y="928.48071"
         style="font-size:9.19728851px;font-style:normal;font-variant:normal;font-weight:normal;font-stretch:normal;font-family:Calibri;-inkscape-font-specification:Calibri">IDD6</tspan></text>
    <text
       xml:space="preserve"
       style="font-size:40px;font-style:normal;font-weight:normal;line-height:125%;letter-spacing:0px;word-spacing:0px;fill:#000000;fill-opacity:1;stroke:none;font-family:Sans"
       x="667.94885"
       y="928.48071"
       id="idd7_text"
       class="power_parameters"
       sodipodi:linespacing="125%"
       inkscape:label="#text3954-5-2"><tspan
         sodipodi:role="line"
         id="tspan3956-1-3"
         x="667.94885"
         y="928.48071"
         style="font-size:9.19728851px;font-style:normal;font-variant:normal;font-weight:normal;font-stretch:normal;font-family:Calibri;-inkscape-font-specification:Calibri">IDD7</tspan></text>
    <text
       xml:space="preserve"
       style="font-size:40px;font-style:normal;font-weight:normal;line-height:125%;letter-spacing:0px;word-spacing:0px;fill:#000000;fill-opacity:1;stroke:none;font-family:Sans"
       x="624.31616"
       y="928.48071"
       id="idd6l_text"
       class="power_parameters"
       sodipodi:linespacing="125%"
       inkscape:label="#text3954-5-22"><tspan
         sodipodi:role="line"
         id="tspan3956-1-1"
         x="624.31616"
         y="928.48071"
         style="font-size:9.19728851px;font-style:normal;font-variant:normal;font-weight:normal;font-stretch:normal;font-family:Calibri;-inkscape-font-specification:Calibri">IDD6L</tspan></text>
    <text
       xml:space="preserve"
       style="font-size:40px;font-style:normal;font-weight:normal;line-height:125%;letter-spacing:0px;word-spacing:0px;fill:#000000;fill-opacity:1;stroke:none;font-family:Sans"
       x="709.83167"
       y="928.48071"
       id="vdd_text"
       class="power_parameters"
       sodipodi:linespacing="125%"
       inkscape:label="#text3954-5-6-5"><tspan
         sodipodi:role="line"
         id="tspan3956-1-8-7"
         x="709.83167"
         y="928.48071"
         style="font-size:9.19728851px;font-style:normal;font-variant:normal;font-weight:normal;font-stretch:normal;font-family:Calibri;-inkscape-font-specification:Calibri">VDD</tspan></text>
    <text
       xml:space="preserve"
       style="font-size:40px;font-style:normal;font-weight:normal;line-height:125%;letter-spacing:0px;word-spacing:0px;fill:#000000;fill-opacity:1;stroke:none;font-family:Sans"
       x="208.34906"
       y="928.48071"
       id="idd2p_text"
       class="power_parameters"
       sodipodi:linespacing="125%"
       inkscape:label="#text3954-5-6-6-5"><tspan
         sodipodi:role="line"
         id="tspan3956-1-8-1-4"
         x="208.34906"
         y="928.48071"
         style="font-size:9.19728851px;font-style:normal;font-variant:normal;font-weight:normal;font-stretch:normal;font-family:Calibri;-inkscape-font-specification:Calibri">IDD2P</tspan></text>
    <path
       style="fill:#b3b3b3;stroke:#999999;stroke-width:1.20491374px;stroke-linecap:butt;stroke-linejoin:miter;stroke-opacity:1"
       d="m 92.026973,674.0359 668.797597,0"
       id="path4847-4-1-33"
       inkscape:connector-curvature="0" />
    <path
       style="fill:#b3b3b3;stroke:#999999;stroke-width:1.20500004;stroke-linecap:butt;stroke-linejoin:miter;stroke-miterlimit:4;stroke-opacity:1;stroke-dasharray:none"
       d="m 92.349636,680.21075 669.515714,0"
       id="path4847-4-2-4"
       inkscape:connector-curvature="0" />
    <path
       style="fill:#b3b3b3;stroke:#999999;stroke-width:1.20491374px;stroke-linecap:butt;stroke-linejoin:miter;stroke-opacity:1"
       d="m 90.870193,686.39457 668.797577,0"
       id="path4847-4-1-6-1"
       inkscape:connector-curvature="0" />
    <path
       style="fill:#b3b3b3;stroke:#999999;stroke-width:1.20519495px;stroke-linecap:butt;stroke-linejoin:miter;stroke-opacity:1"
       d="m 90.451104,692.62925 669.109846,0"
       id="path4847-4-21-1"
       inkscape:connector-curvature="0" />
    <path
       style="fill:#b3b3b3;stroke:#999999;stroke-width:1.20491374px;stroke-linecap:butt;stroke-linejoin:miter;stroke-opacity:1"
       d="m 91.221501,698.81307 668.797619,0"
       id="path4847-4-1-68-38"
       inkscape:connector-curvature="0" />
    <path
       style="fill:#b3b3b3;stroke:#999999;stroke-width:1.20516002px;stroke-linecap:butt;stroke-linejoin:miter;stroke-opacity:1"
       d="m 90.934979,704.98793 669.071071,0"
       id="path4847-4-2-5-7"
       inkscape:connector-curvature="0" />
    <path
       style="fill:#b3b3b3;stroke:#999999;stroke-width:1.20522416px;stroke-linecap:butt;stroke-linejoin:miter;stroke-opacity:1"
       d="m 92.283298,711.17174 669.142062,0"
       id="path4847-4-1-6-7-4"
       inkscape:connector-curvature="0" />
    <path
       style="fill:#b3b3b3;stroke:#999999;stroke-width:1.20491374px;stroke-linecap:butt;stroke-linejoin:miter;stroke-opacity:1"
       d="m 91.489131,662.09536 668.797599,0"
       id="path4847-4-1-33-0"
       inkscape:connector-curvature="0" />
    <path
       style="fill:#b3b3b3;stroke:#999999;stroke-width:1.2050544px;stroke-linecap:butt;stroke-linejoin:miter;stroke-opacity:1"
       d="m 92.373788,668.27021 668.953732,0"
       id="path4847-4-2-4-9"
       inkscape:connector-curvature="0" />
    <rect
       style="fill:none;stroke:#000000;stroke-width:3.05968642;stroke-linecap:butt;stroke-linejoin:miter;stroke-miterlimit:4;stroke-opacity:1;stroke-dasharray:none"
       id="power_chart"
       width="669.98364"
       height="305.74338"
       x="90.918991"
       y="611.89618"
       inkscape:label="#rect3809-6" />
    <rect
       class="power_bar"
       style="color:#000000;fill:#ff0000;fill-opacity:1;fill-rule:nonzero;stroke:#000000;stroke-width:2.39273238000000000;stroke-linecap:butt;stroke-linejoin:miter;stroke-miterlimit:4;stroke-opacity:1;stroke-dasharray:none;stroke-dashoffset:0;marker:none;visibility:visible;display:inline;overflow:visible;enable-background:accumulate"
       id="idd2p_bar"
       width="14.607267"
       height="9.1343241"
       x="212.11501"
       y="-915.71387"
       inkscape:label="#rect6089"
       transform="scale(1,-1)" />
    <rect
       class="power_bar"
       style="color:#000000;fill:#ff0000;fill-opacity:1;fill-rule:nonzero;stroke:#000000;stroke-width:2.13126134999999990;stroke-linecap:butt;stroke-linejoin:miter;stroke-miterlimit:4;stroke-opacity:1;stroke-dasharray:none;stroke-dashoffset:0;marker:none;visibility:visible;display:inline;overflow:visible;enable-background:accumulate"
       id="idd1_bar"
       width="14.868738"
       height="18.222017"
       x="169.4436"
       y="-915.53662"
       inkscape:label="#rect6089-9"
       transform="scale(1,-1)" />
    <rect
       class="power_bar"
       style="color:#000000;fill:#ff0000;fill-opacity:1;fill-rule:nonzero;stroke:#000000;stroke-width:2.41084956999999990;stroke-linecap:butt;stroke-linejoin:miter;stroke-miterlimit:4;stroke-opacity:1;stroke-dasharray:none;stroke-dashoffset:0;marker:none;visibility:visible;display:inline;overflow:visible;enable-background:accumulate"
       id="idd2q_bar"
       width="14.58915"
       height="15.739026"
       x="253.17953"
       y="-915.43646"
       inkscape:label="#rect6089-9-3"
       transform="scale(1,-1)" />
    <rect
       class="power_bar"
       style="color:#000000;fill:#ff0000;fill-opacity:1;fill-rule:nonzero;stroke:#000000;stroke-width:2.42477393000000020;stroke-linecap:butt;stroke-linejoin:miter;stroke-miterlimit:4;stroke-opacity:1;stroke-dasharray:none;stroke-dashoffset:0;marker:none;visibility:visible;display:inline;overflow:visible;enable-background:accumulate"
       id="idd2n_bar"
       width="14.575226"
       height="31.735859"
       x="294.8941"
       y="-915.51178"
       inkscape:label="#rect6089-9-3-1"
       transform="scale(1,-1)" />
    <rect
       class="power_bar"
       style="color:#000000;fill:#ff0000;fill-opacity:1;fill-rule:nonzero;stroke:#000000;stroke-width:2.41413187999999980;stroke-linecap:butt;stroke-linejoin:miter;stroke-miterlimit:4;stroke-opacity:1;stroke-dasharray:none;stroke-dashoffset:0;marker:none;visibility:visible;display:inline;overflow:visible;enable-background:accumulate"
       id="idd3pf_bar"
       width="14.585868"
       height="17.939148"
       x="336.59204"
       y="-915.39331"
       inkscape:label="#rect6089-9-9"
       transform="scale(1,-1)" />
    <rect
       class="power_bar"
       style="color:#000000;fill:#ff0000;fill-opacity:1;fill-rule:nonzero;stroke:#000000;stroke-width:2.39337277000000000;stroke-linecap:butt;stroke-linejoin:miter;stroke-miterlimit:4;stroke-opacity:1;stroke-dasharray:none;stroke-dashoffset:0;marker:none;visibility:visible;display:inline;overflow:visible;enable-background:accumulate"
       id="idd6_bar"
       width="14.606627"
       height="9.2795534"
       x="586.74988"
       y="-915.64233"
       inkscape:label="#rect6089-9-9-5"
       transform="scale(1,-1)" />
    <rect
       class="power_bar"
       style="color:#000000;fill:#ff0000;fill-opacity:1;fill-rule:nonzero;stroke:#000000;stroke-width:2.38671802999999990;stroke-linecap:butt;stroke-linejoin:miter;stroke-miterlimit:4;stroke-opacity:1;stroke-dasharray:none;stroke-dashoffset:0;marker:none;visibility:visible;display:inline;overflow:visible;enable-background:accumulate"
       id="idd4r_bar"
       width="14.613282"
       height="7.942492"
       x="503.48181"
       y="-915.39801"
       inkscape:label="#rect6089-9-3-8-0"
       transform="scale(1,-1)" />
    <rect
       class="power_bar"
       style="color:#000000;fill:#ff0000;fill-opacity:1;fill-rule:nonzero;stroke:#000000;stroke-width:2.39669633000000020;stroke-linecap:butt;stroke-linejoin:miter;stroke-miterlimit:4;stroke-opacity:1;stroke-dasharray:none;stroke-dashoffset:0;marker:none;visibility:visible;display:inline;overflow:visible;enable-background:accumulate"
       id="idd5_bar"
       width="14.603304"
       height="10.102855"
       x="545.08655"
       y="-915.53131"
       inkscape:label="#rect6089-9-9-5-2"
       transform="scale(1,-1)" />
    <rect
       class="power_bar"
       style="color:#000000;fill:#ff0000;fill-opacity:1;fill-rule:nonzero;stroke:#000000;stroke-width:2.41413187999999980;stroke-linecap:butt;stroke-linejoin:miter;stroke-miterlimit:4;stroke-opacity:1;stroke-dasharray:none;stroke-dashoffset:0;marker:none;visibility:visible;display:inline;overflow:visible;enable-background:accumulate"
       id="idd6l_bar"
       width="14.585868"
       height="17.939148"
       x="628.50342"
       y="-915.39905"
       inkscape:label="#rect6089-9-9-8-6"
       transform="scale(1,-1)" />
    <rect
       class="power_bar"
       style="color:#000000;fill:#ff0000;fill-opacity:1;fill-rule:nonzero;stroke:#000000;stroke-width:2.30368899999999990;stroke-linecap:butt;stroke-linejoin:miter;stroke-miterlimit:4;stroke-opacity:1;stroke-dasharray:none;stroke-dashoffset:0;marker:none;visibility:visible;display:inline;overflow:visible;enable-background:accumulate"
       id="idd7_bar"
       width="14.696311"
       height="2.2999566"
       x="670.1792"
       y="-915.51105"
       inkscape:label="#rect6089-9-3-8-0-8"
       transform="scale(1,-1)" />
    <rect
       class="power_bar"
       style="color:#000000;fill:#ff0000;fill-opacity:1;fill-rule:nonzero;stroke:#000000;stroke-width:2.43619704000000010;stroke-linecap:butt;stroke-linejoin:miter;stroke-miterlimit:4;stroke-opacity:1;stroke-dasharray:none;stroke-dashoffset:0;marker:none;visibility:visible;display:inline;overflow:visible;enable-background:accumulate"
       id="vdd_bar"
       width="14.563803"
       height="139.95396"
       x="712.00433"
       y="-915.39978"
       inkscape:label="#rect6089-9-9-8-6-4-5"
       transform="scale(1,-1)" />
    <rect
       class="power_bar"
       style="color:#000000;fill:#ff0000;fill-opacity:1;fill-rule:nonzero;stroke:#000000;stroke-width:2.41413187999999980;stroke-linecap:butt;stroke-linejoin:miter;stroke-miterlimit:4;stroke-opacity:1;stroke-dasharray:none;stroke-dashoffset:0;marker:none;visibility:visible;display:inline;overflow:visible;enable-background:accumulate"
       id="idd3ps_bar"
       width="14.585868"
       height="17.939148"
       x="378.24512"
       y="-915.4093"
       inkscape:label="#rect6089-9-9"
       transform="scale(1,-1)" />
    <rect
       class="power_bar"
       style="color:#000000;fill:#ff0000;fill-opacity:1;fill-rule:nonzero;stroke:#000000;stroke-width:2.41413187999999980;stroke-linecap:butt;stroke-linejoin:miter;stroke-miterlimit:4;stroke-opacity:1;stroke-dasharray:none;stroke-dashoffset:0;marker:none;visibility:visible;display:inline;overflow:visible;enable-background:accumulate"
       id="idd3n_bar"
       width="14.585868"
       height="17.939148"
       x="420.04239"
       y="-915.38452"
       inkscape:label="#rect6089-9-9"
       transform="scale(1,-1)" />
    <rect
       class="power_bar"
       style="color:#000000;fill:#ff0000;fill-opacity:1;fill-rule:nonzero;stroke:#000000;stroke-width:2.41413187999999980;stroke-linecap:butt;stroke-linejoin:miter;stroke-miterlimit:4;stroke-opacity:1;stroke-dasharray:none;stroke-dashoffset:0;marker:none;visibility:visible;display:inline;overflow:visible;enable-background:accumulate"
       id="idd4w_bar"
       width="14.585868"
       height="17.939148"
       x="461.8324"
       y="-915.34949"
       inkscape:label="#rect6089-9-9-8-6"
       transform="scale(1,-1)" />
    <rect
       style="color:#000000;fill:#cccccc;fill-opacity:1;fill-rule:nonzero;stroke:#000000;stroke-width:0.98757964;stroke-linecap:butt;stroke-linejoin:miter;stroke-miterlimit:4;stroke-opacity:1;stroke-dasharray:none;stroke-dashoffset:0;marker:none;visibility:visible;display:inline;overflow:visible;enable-background:accumulate"
       id="idd0_up2"
       width="10.060705"
       height="10.318671"
       x="128.35588"
       y="932.04608"
       inkscape:label=""
       onmouseover="Increase the Transaction Queue by a power of 2." />
    <path
       sodipodi:type="star"
       style="color:#000000;fill:#000000;fill-opacity:1;fill-rule:nonzero;stroke:#000000;stroke-width:2;stroke-linecap:butt;stroke-linejoin:miter;stroke-miterlimit:4;stroke-opacity:1;stroke-dasharray:none;stroke-dashoffset:0;marker:none;visibility:visible;display:inline;overflow:visible;enable-background:accumulate"
       id="idd0_up"
       sodipodi:sides="3"
       sodipodi:cx="104.48446"
       sodipodi:cy="832.90851"
       sodipodi:r1="5.8408594"
       sodipodi:r2="2.9204297"
       sodipodi:arg1="2.6179939"
       sodipodi:arg2="3.6651914"
       inkscape:flatsided="false"
       inkscape:rounded="0"
       inkscape:randomized="0"
       d="m 99.426126,835.82894 2.529164,-4.38065 2.52917,-4.38064 2.52917,4.38064 2.52916,4.38065 -5.05833,0 z"
       transform="matrix(0.47561805,0,0,0.37415892,83.739843,626.63521)"
       inkscape:transform-center-y="-0.54632506"
       inkscape:label=""
       onmouseover="Increase the Transaction Queue by a power of 2." />
    <rect
       style="color:#000000;fill:#cccccc;fill-opacity:1;fill-rule:nonzero;stroke:#000000;stroke-width:0.98757964;stroke-linecap:butt;stroke-linejoin:miter;stroke-miterlimit:4;stroke-opacity:1;stroke-dasharray:none;stroke-dashoffset:0;marker:none;visibility:visible;display:inline;overflow:visible;enable-background:accumulate"
       id="idd0_down2"
       width="10.060705"
       height="10.318671"
       x="-138.61641"
       y="-955.85468"
       inkscape:label=""
       onmouseover="Increase the Transaction Queue by a power of 2."
       transform="scale(-1,-1)" />
    <path
       sodipodi:type="star"
       style="color:#000000;fill:#000000;fill-opacity:1;fill-rule:nonzero;stroke:#000000;stroke-width:2;stroke-linecap:butt;stroke-linejoin:miter;stroke-miterlimit:4;stroke-opacity:1;stroke-dasharray:none;stroke-dashoffset:0;marker:none;visibility:visible;display:inline;overflow:visible;enable-background:accumulate"
       id="idd0_down"
       sodipodi:sides="3"
       sodipodi:cx="104.48446"
       sodipodi:cy="832.90851"
       sodipodi:r1="5.8408594"
       sodipodi:r2="2.9204297"
       sodipodi:arg1="2.6179939"
       sodipodi:arg2="3.6651914"
       inkscape:flatsided="false"
       inkscape:rounded="0"
       inkscape:randomized="0"
       d="m 99.426126,835.82894 2.529164,-4.38065 2.52917,-4.38064 2.52917,4.38064 2.52916,4.38065 -5.05833,0 z"
       transform="matrix(-0.47561805,0,0,-0.37415892,183.2553,1261.2656)"
       inkscape:label=""
       onmouseover="Increase the Transaction Queue by a power of 2."
       inkscape:transform-center-y="0.54633148" />
    <text
       xml:space="preserve"
       style="font-size:40px;font-style:normal;font-weight:normal;line-height:125%;letter-spacing:0px;word-spacing:0px;fill:#000000;fill-opacity:1;stroke:none;font-family:Sans"
       x="124.72017"
       y="928.40009"
       id="idd0_text"
       class="power_parameters"
       sodipodi:linespacing="125%"
       inkscape:label="#text3954-5-6-6-9"><tspan
         sodipodi:role="line"
         id="tspan3956-1-8-1-48"
         x="124.72017"
         y="928.40009"
         style="font-size:9.19728851px;font-style:normal;font-variant:normal;font-weight:normal;font-stretch:normal;font-family:Calibri;-inkscape-font-specification:Calibri">IDD0</tspan></text>
    <rect
       class="power_bar"
       style="color:#000000;fill:#ff0000;fill-opacity:1;fill-rule:nonzero;stroke:#000000;stroke-width:2.38671802999999990;stroke-linecap:butt;stroke-linejoin:miter;stroke-miterlimit:4;stroke-opacity:1;stroke-dasharray:none;stroke-dashoffset:0;marker:none;visibility:visible;display:inline;overflow:visible;enable-background:accumulate"
       id="idd0_bar"
       width="14.613282"
       height="7.942492"
       x="126.62071"
       y="-915.45605"
       inkscape:label="#rect6089-9-3-8-0-0"
       transform="scale(1,-1)" />
    <text
       xml:space="preserve"
       style="font-size:40px;font-style:normal;font-weight:normal;line-height:125%;letter-spacing:0px;word-spacing:0px;fill:#000000;fill-opacity:1;stroke:none;font-family:Sans"
       x="69.53331"
       y="894.19202"
       id="p_label0"
       sodipodi:linespacing="125%"
       inkscape:label="#text3954-5-6-6-9"><tspan
         sodipodi:role="line"
         id="tspan3956-1-8-1-48-7"
         x="69.53331"
         y="894.19202"
         style="font-size:9.19728851px;font-style:normal;font-variant:normal;font-weight:normal;font-stretch:normal;font-family:Calibri;-inkscape-font-specification:Calibri">25</tspan></text>
    <text
       xml:space="preserve"
       style="font-size:40px;font-style:normal;font-weight:normal;line-height:125%;letter-spacing:0px;word-spacing:0px;fill:#000000;fill-opacity:1;stroke:none;font-family:Sans"
       x="69.300919"
       y="869.13232"
       id="p_label1"
       sodipodi:linespacing="125%"
       inkscape:label="#text3954-5-6-6-9"><tspan
         sodipodi:role="line"
         id="tspan3956-1-8-1-48-7-4"
         x="69.300919"
         y="869.13232"
         style="font-size:9.19728851px;font-style:normal;font-variant:normal;font-weight:normal;font-stretch:normal;font-family:Calibri;-inkscape-font-specification:Calibri">50</tspan></text>
    <text
       xml:space="preserve"
       style="font-size:40px;font-style:normal;font-weight:normal;line-height:125%;letter-spacing:0px;word-spacing:0px;fill:#000000;fill-opacity:1;stroke:none;font-family:Sans"
       x="69.532867"
       y="844.4873"
       id="p_label2"
       sodipodi:linespacing="125%"
       inkscape:label="#text3954-5-6-6-9"><tspan
         sodipodi:role="line"
         id="tspan3956-1-8-1-48-7-8"
         x="69.532867"
         y="844.4873"
         style="font-size:9.19728851px;font-style:normal;font-variant:normal;font-weight:normal;font-stretch:normal;font-family:Calibri;-inkscape-font-specification:Calibri">75</tspan></text>
    <text
       xml:space="preserve"
       style="font-size:40px;font-style:normal;font-weight:normal;line-height:125%;letter-spacing:0px;word-spacing:0px;fill:#000000;fill-opacity:1;stroke:none;font-family:Sans"
       x="64.618774"
       y="819.74762"
       id="p_label3"
       sodipodi:linespacing="125%"
       inkscape:label="#text3954-5-6-6-9"><tspan
         sodipodi:role="line"
         id="tspan3956-1-8-1-48-7-45"
         x="64.618774"
         y="819.74762"
         style="font-size:9.19728851px;font-style:normal;font-variant:normal;font-weight:normal;font-stretch:normal;font-family:Calibri;-inkscape-font-specification:Calibri">100</tspan></text>
    <text
       xml:space="preserve"
       style="font-size:40px;font-style:normal;font-weight:normal;line-height:125%;letter-spacing:0px;word-spacing:0px;fill:#000000;fill-opacity:1;stroke:none;font-family:Sans"
       x="64.861084"
       y="794.8147"
       id="p_label4"
       sodipodi:linespacing="125%"
       inkscape:label="#text3954-5-6-6-9"><tspan
         sodipodi:role="line"
         id="tspan3956-1-8-1-48-7-45-1"
         x="64.861084"
         y="794.8147"
         style="font-size:9.19728851px;font-style:normal;font-variant:normal;font-weight:normal;font-stretch:normal;font-family:Calibri;-inkscape-font-specification:Calibri">125</tspan></text>
    <text
       xml:space="preserve"
       style="font-size:40px;font-style:normal;font-weight:normal;line-height:125%;letter-spacing:0px;word-spacing:0px;fill:#000000;fill-opacity:1;stroke:none;font-family:Sans"
       x="64.641769"
       y="770.17096"
       id="p_label5"
       sodipodi:linespacing="125%"
       inkscape:label="#text3954-5-6-6-9"><tspan
         sodipodi:role="line"
         id="tspan3956-1-8-1-48-7-45-1-1"
         x="64.641769"
         y="770.17096"
         style="font-size:9.19728851px;font-style:normal;font-variant:normal;font-weight:normal;font-stretch:normal;font-family:Calibri;-inkscape-font-specification:Calibri">150</tspan></text>
    <text
       xml:space="preserve"
       style="font-size:40px;font-style:normal;font-weight:normal;line-height:125%;letter-spacing:0px;word-spacing:0px;fill:#000000;fill-opacity:1;stroke:none;font-family:Sans"
       x="64.857307"
       y="745.32635"
       id="p_label6"
       sodipodi:linespacing="125%"
       inkscape:label="#text3954-5-6-6-9"><tspan
         sodipodi:role="line"
         id="tspan3956-1-8-1-48-7-45-1-1-5"
         x="64.857307"
         y="745.32635"
         style="font-size:9.19728851px;font-style:normal;font-variant:normal;font-weight:normal;font-stretch:normal;font-family:Calibri;-inkscape-font-specification:Calibri">175</tspan></text>
    <text
       xml:space="preserve"
       style="font-size:40px;font-style:normal;font-weight:normal;line-height:125%;letter-spacing:0px;word-spacing:0px;fill:#000000;fill-opacity:1;stroke:none;font-family:Sans"
       x="64.640671"
       y="720.41046"
       id="p_label7"
       sodipodi:linespacing="125%"
       inkscape:label="#text3954-5-6-6-9"><tspan
         sodipodi:role="line"
         id="tspan3956-1-8-1-48-7-45-1-1-5-7"
         x="64.640671"
         y="720.41046"
         style="font-size:9.19728851px;font-style:normal;font-variant:normal;font-weight:normal;font-stretch:normal;font-family:Calibri;-inkscape-font-specification:Calibri">200</tspan></text>
    <text
       xml:space="preserve"
       style="font-size:40px;font-style:normal;font-weight:normal;line-height:125%;letter-spacing:0px;word-spacing:0px;fill:#000000;fill-opacity:1;stroke:none;font-family:Sans"
       x="64.850151"
       y="695.36884"
       id="p_label8"
       sodipodi:linespacing="125%"
       inkscape:label="#text3954-5-6-6-9"><tspan
         sodipodi:role="line"
         id="tspan3956-1-8-1-48-7-45-1-1-5-7-1"
         x="64.850151"
         y="695.36884"
         style="font-size:9.19728851px;font-style:normal;font-variant:normal;font-weight:normal;font-stretch:normal;font-family:Calibri;-inkscape-font-specification:Calibri">225</tspan></text>
    <text
       xml:space="preserve"
       style="font-size:40px;font-style:normal;font-weight:normal;line-height:125%;letter-spacing:0px;word-spacing:0px;fill:#000000;fill-opacity:1;stroke:none;font-family:Sans"
       x="64.641907"
       y="670.97064"
       id="p_label9"
       sodipodi:linespacing="125%"
       inkscape:label="#text3954-5-6-6-9"><tspan
         sodipodi:role="line"
         id="tspan3956-1-8-1-48-7-45-1-1-5-7-2"
         x="64.641907"
         y="670.97064"
         style="font-size:9.19728851px;font-style:normal;font-variant:normal;font-weight:normal;font-stretch:normal;font-family:Calibri;-inkscape-font-specification:Calibri">250</tspan></text>
  </g>
</svg>

