<?xml version="1.0" encoding="UTF-8" standalone="no"?>
<!-- Created with Inkscape (http://www.inkscape.org/) -->

<svg
   xmlns:dc="http://purl.org/dc/elements/1.1/"
   xmlns:cc="http://creativecommons.org/ns#"
   xmlns:rdf="http://www.w3.org/1999/02/22-rdf-syntax-ns#"
   xmlns:svg="http://www.w3.org/2000/svg"
   xmlns="http://www.w3.org/2000/svg"
   xmlns:sodipodi="http://sodipodi.sourceforge.net/DTD/sodipodi-0.dtd"
   xmlns:inkscape="http://www.inkscape.org/namespaces/inkscape"
   sodipodi:docname="dramsim2_ganged_additional_channel_last - MOD2.svg"
   inkscape:version="0.48.5 r10040"
   version="1.1"
   id="svg2"
   height="114"
   width="830">
  <sodipodi:namedview
     id="base"
     pagecolor="#ffffff"
     bordercolor="#666666"
     borderopacity="1.0"
     inkscape:pageopacity="0.0"
     inkscape:pageshadow="2"
     inkscape:zoom="2.2713622"
     inkscape:cx="631.31816"
     inkscape:cy="84.399439"
     inkscape:document-units="px"
     inkscape:current-layer="layer1"
     showgrid="false"
     showborder="true"
     inkscape:window-width="1600"
     inkscape:window-height="838"
     inkscape:window-x="-8"
     inkscape:window-y="-8"
     inkscape:window-maximized="1"
     showguides="true"
     inkscape:guide-bbox="true">
    <sodipodi:guide
       orientation="1,0"
       position="-160.90608,1143.0601"
       id="guide5374" />
    <sodipodi:guide
       orientation="0,1"
       position="208.2506,1528.4118"
       id="guide4922" />
    <sodipodi:guide
       orientation="1,0"
       position="-0.52242233,1566.7446"
       id="guide4957" />
    <sodipodi:guide
       orientation="1,0"
       position="746.54151,1478.9776"
       id="guide5057" />
    <sodipodi:guide
       orientation="0,1"
       position="101.65657,1521.847"
       id="guide5086" />
    <sodipodi:guide
       orientation="0,1"
       position="-49.497474,1880.904"
       id="guide5090" />
    <sodipodi:guide
       orientation="0,1"
       position="179.33996,1491.3324"
       id="guide5092" />
    <sodipodi:guide
       orientation="1,0"
       position="444.84375,1100.3242"
       id="guide5159" />
    <sodipodi:guide
       orientation="1,0"
       position="37.255171,1855.8273"
       id="guide6061" />
    <sodipodi:guide
       orientation="1,0"
       position="224.875,1095"
       id="guide6133" />
    <sodipodi:guide
       orientation="1,0"
       position="604.75,1289"
       id="guide6383" />
    <sodipodi:guide
       orientation="0,1"
       position="244.25015,493.32851"
       id="guide6441" />
    <sodipodi:guide
       orientation="0,1"
       position="440.32994,1098.8507"
       id="guide4013" />
    <sodipodi:guide
       orientation="0,1"
       position="590.20214,1313.2409"
       id="guide4961" />
    <sodipodi:guide
       orientation="0,1"
       position="589.60156,1260.2539"
       id="guide4963" />
    <sodipodi:guide
       orientation="1,0"
       position="467.05078,962.32422"
       id="guide4965" />
    <sodipodi:guide
       orientation="0,1"
       position="440.22921,1327.14"
       id="guide5138" />
    <sodipodi:guide
       orientation="1,0"
       position="17.60033,1198.4631"
       id="guide5461" />
    <sodipodi:guide
       orientation="1,0"
       position="713.26172,1270.2891"
       id="guide4334" />
    <sodipodi:guide
       orientation="0,1"
       position="157.97348,1725.2898"
       id="guide4141" />
    <sodipodi:guide
       orientation="0,1"
       position="226.40097,417.92937"
       id="guide5072" />
    <sodipodi:guide
       orientation="0,1"
       position="336.74053,414.78867"
       id="guide5074" />
  </sodipodi:namedview>
  <defs
     id="defs4">
    <marker
       inkscape:stockid="DiamondL"
       orient="auto"
       refY="0"
       refX="0"
       id="DiamondL"
       style="overflow:visible">
      <path
         id="path13282"
         d="M 0,-7.0710768 -7.0710894,0 0,7.0710589 7.0710462,0 0,-7.0710768 z"
         style="fill-rule:evenodd;stroke:#000000;stroke-width:1pt"
         transform="scale(0.8,0.8)"
         inkscape:connector-curvature="0" />
    </marker>
    <marker
       inkscape:stockid="Arrow1Lend"
       orient="auto"
       refY="0"
       refX="0"
       id="Arrow1Lend"
       style="overflow:visible">
      <path
         id="path3901"
         d="M 0,0 5,-5 -12.5,0 5,5 0,0 z"
         style="fill-rule:evenodd;stroke:#000000;stroke-width:1pt"
         transform="matrix(-0.8,0,0,-0.8,-10,0)"
         inkscape:connector-curvature="0" />
    </marker>
    <marker
       inkscape:stockid="Arrow1Lstart"
       orient="auto"
       refY="0"
       refX="0"
       id="Arrow1Lstart"
       style="overflow:visible">
      <path
         id="path3898"
         d="M 0,0 5,-5 -12.5,0 5,5 0,0 z"
         style="fill-rule:evenodd;stroke:#000000;stroke-width:1pt"
         transform="matrix(0.8,0,0,0.8,10,0)"
         inkscape:connector-curvature="0" />
    </marker>
    <marker
       inkscape:stockid="Arrow1Lend"
       orient="auto"
       refY="0"
       refX="0"
       id="Arrow1Lend-4"
       style="overflow:visible">
      <path
         inkscape:connector-curvature="0"
         id="path3901-2"
         d="M 0,0 5,-5 -12.5,0 5,5 0,0 z"
         style="fill-rule:evenodd;stroke:#000000;stroke-width:1pt"
         transform="matrix(-0.8,0,0,-0.8,-10,0)" />
    </marker>
    <marker
       inkscape:stockid="Arrow1Lend"
       orient="auto"
       refY="0"
       refX="0"
       id="Arrow1Lend-4-3"
       style="overflow:visible">
      <path
         inkscape:connector-curvature="0"
         id="path3901-2-8"
         d="M 0,0 5,-5 -12.5,0 5,5 0,0 z"
         style="fill-rule:evenodd;stroke:#000000;stroke-width:1pt"
         transform="matrix(-0.8,0,0,-0.8,-10,0)" />
    </marker>
    <marker
       inkscape:stockid="Arrow1Lstart"
       orient="auto"
       refY="0"
       refX="0"
       id="Arrow1Lstart-7"
       style="overflow:visible">
      <path
         inkscape:connector-curvature="0"
         id="path3898-0"
         d="M 0,0 5,-5 -12.5,0 5,5 0,0 z"
         style="fill-rule:evenodd;stroke:#000000;stroke-width:1pt"
         transform="matrix(0.8,0,0,0.8,10,0)" />
    </marker>
    <marker
       inkscape:stockid="Arrow1Lend"
       orient="auto"
       refY="0"
       refX="0"
       id="Arrow1Lend-4-3-1"
       style="overflow:visible">
      <path
         inkscape:connector-curvature="0"
         id="path3901-2-8-4"
         d="M 0,0 5,-5 -12.5,0 5,5 0,0 z"
         style="fill-rule:evenodd;stroke:#000000;stroke-width:1pt"
         transform="matrix(-0.8,0,0,-0.8,-10,0)" />
    </marker>
    <marker
       inkscape:stockid="Arrow1Lend"
       orient="auto"
       refY="0"
       refX="0"
       id="Arrow1Lend-4-5"
       style="overflow:visible">
      <path
         inkscape:connector-curvature="0"
         id="path3901-2-5"
         d="M 0,0 5,-5 -12.5,0 5,5 0,0 z"
         style="fill-rule:evenodd;stroke:#000000;stroke-width:1pt"
         transform="matrix(-0.8,0,0,-0.8,-10,0)" />
    </marker>
    <marker
       inkscape:stockid="Arrow1Lend-4-5l"
       orient="auto"
       refY="0"
       refX="0"
       id="Arrow1Lend-4-5l"
       style="overflow:visible">
      <path
         inkscape:connector-curvature="0"
         id="path5537"
         d="M 0,0 5,-5 -12.5,0 5,5 0,0 z"
         style="fill:#ff6600;fill-rule:evenodd;stroke:#ff6600;stroke-width:1pt"
         transform="matrix(-0.8,0,0,-0.8,-10,0)" />
    </marker>
    <marker
       inkscape:stockid="Arrow1Lend"
       orient="auto"
       refY="0"
       refX="0"
       id="Arrow1Lend-4-5-3"
       style="overflow:visible">
      <path
         inkscape:connector-curvature="0"
         id="path3901-2-5-2"
         d="M 0,0 5,-5 -12.5,0 5,5 0,0 z"
         style="fill-rule:evenodd;stroke:#000000;stroke-width:1pt"
         transform="matrix(-0.8,0,0,-0.8,-10,0)" />
    </marker>
    <marker
       inkscape:stockid="Arrow1Lend-4-5-31"
       orient="auto"
       refY="0"
       refX="0"
       id="Arrow1Lend-4-5-31"
       style="overflow:visible">
      <path
         inkscape:connector-curvature="0"
         id="path11396"
         d="M 0,0 5,-5 -12.5,0 5,5 0,0 z"
         style="fill:#808080;fill-rule:evenodd;stroke:#808080;stroke-width:1pt"
         transform="matrix(-0.8,0,0,-0.8,-10,0)" />
    </marker>
    <marker
       inkscape:stockid="DiamondLp"
       orient="auto"
       refY="0"
       refX="0"
       id="DiamondLp"
       style="overflow:visible">
      <path
         id="path14501"
         d="M 0,-7.0710768 -7.0710894,0 0,7.0710589 7.0710462,0 0,-7.0710768 z"
         style="fill:#000000;fill-rule:evenodd;stroke:#000000;stroke-width:1pt"
         transform="scale(0.8,0.8)"
         inkscape:connector-curvature="0" />
    </marker>
    <marker
       inkscape:stockid="DiamondLpd"
       orient="auto"
       refY="0"
       refX="0"
       id="DiamondLpd"
       style="overflow:visible">
      <path
         id="path15772"
         d="M 0,-7.0710768 -7.0710894,0 0,7.0710589 7.0710462,0 0,-7.0710768 z"
         style="fill:#808080;fill-rule:evenodd;stroke:#808080;stroke-width:1pt"
         transform="scale(0.8,0.8)"
         inkscape:connector-curvature="0" />
    </marker>
    <marker
       inkscape:stockid="Arrow1Lstart"
       orient="auto"
       refY="0"
       refX="0"
       id="Arrow1Lstart-1"
       style="overflow:visible">
      <path
         id="path3898-7"
         d="M 0,0 5,-5 -12.5,0 5,5 0,0 z"
         style="fill-rule:evenodd;stroke:#000000;stroke-width:1pt"
         transform="matrix(0.8,0,0,0.8,10,0)"
         inkscape:connector-curvature="0" />
    </marker>
    <marker
       inkscape:stockid="Arrow1Lend"
       orient="auto"
       refY="0"
       refX="0"
       id="Arrow1Lend-4-3-8"
       style="overflow:visible">
      <path
         inkscape:connector-curvature="0"
         id="path3901-2-8-8"
         d="M 0,0 5,-5 -12.5,0 5,5 0,0 z"
         style="fill-rule:evenodd;stroke:#000000;stroke-width:1pt"
         transform="matrix(-0.8,0,0,-0.8,-10,0)" />
    </marker>
    <marker
       inkscape:stockid="Arrow1Lstart"
       orient="auto"
       refY="0"
       refX="0"
       id="Arrow1Lstart-2"
       style="overflow:visible">
      <path
         id="path3898-3"
         d="M 0,0 5,-5 -12.5,0 5,5 0,0 z"
         style="fill-rule:evenodd;stroke:#000000;stroke-width:1pt"
         transform="matrix(0.8,0,0,0.8,10,0)"
         inkscape:connector-curvature="0" />
    </marker>
    <marker
       inkscape:stockid="Arrow1Lend"
       orient="auto"
       refY="0"
       refX="0"
       id="Arrow1Lend-4-3-3"
       style="overflow:visible">
      <path
         inkscape:connector-curvature="0"
         id="path3901-2-8-41"
         d="M 0,0 5,-5 -12.5,0 5,5 0,0 z"
         style="fill-rule:evenodd;stroke:#000000;stroke-width:1pt"
         transform="matrix(-0.8,0,0,-0.8,-10,0)" />
    </marker>
    <marker
       inkscape:stockid="Arrow1Lend"
       orient="auto"
       refY="0"
       refX="0"
       id="Arrow1Lend-4-3-1-1"
       style="overflow:visible">
      <path
         inkscape:connector-curvature="0"
         id="path3901-2-8-4-7"
         d="M 0,0 5,-5 -12.5,0 5,5 0,0 z"
         style="fill-rule:evenodd;stroke:#000000;stroke-width:1pt"
         transform="matrix(-0.8,0,0,-0.8,-10,0)" />
    </marker>
    <marker
       inkscape:stockid="Arrow1Lend"
       orient="auto"
       refY="0"
       refX="0"
       id="Arrow1Lend-4-3-17"
       style="overflow:visible">
      <path
         inkscape:connector-curvature="0"
         id="path3901-2-8-40"
         d="M 0,0 5,-5 -12.5,0 5,5 0,0 z"
         style="fill-rule:evenodd;stroke:#000000;stroke-width:1pt"
         transform="matrix(-0.8,0,0,-0.8,-10,0)" />
    </marker>
    <marker
       inkscape:stockid="Arrow1Lend"
       orient="auto"
       refY="0"
       refX="0"
       id="marker3196"
       style="overflow:visible">
      <path
         inkscape:connector-curvature="0"
         id="path3198"
         d="M 0,0 5,-5 -12.5,0 5,5 0,0 z"
         style="fill-rule:evenodd;stroke:#000000;stroke-width:1pt"
         transform="matrix(-0.8,0,0,-0.8,-10,0)" />
    </marker>
    <marker
       inkscape:stockid="Arrow1Lstart"
       orient="auto"
       refY="0"
       refX="0"
       id="Arrow1Lstart-9"
       style="overflow:visible">
      <path
         id="path3898-4"
         d="M 0,0 5,-5 -12.5,0 5,5 0,0 z"
         style="fill-rule:evenodd;stroke:#000000;stroke-width:1pt"
         transform="matrix(0.8,0,0,0.8,10,0)"
         inkscape:connector-curvature="0" />
    </marker>
    <marker
       inkscape:stockid="Arrow1Lstart"
       orient="auto"
       refY="0"
       refX="0"
       id="marker3202"
       style="overflow:visible">
      <path
         id="path3204"
         d="M 0,0 5,-5 -12.5,0 5,5 0,0 z"
         style="fill-rule:evenodd;stroke:#000000;stroke-width:1pt"
         transform="matrix(0.8,0,0,0.8,10,0)"
         inkscape:connector-curvature="0" />
    </marker>
  </defs>
  <metadata
     id="metadata7">
    <rdf:RDF>
      <cc:Work
         rdf:about="">
        <dc:format>image/svg+xml</dc:format>
        <dc:type
           rdf:resource="http://purl.org/dc/dcmitype/StillImage" />
        <dc:title />
      </cc:Work>
    </rdf:RDF>
  </metadata>
  <g
     inkscape:label="Layer 1"
     inkscape:groupmode="layer"
     id="layer1"
     transform="translate(0,-938.362)">
    <path
       style="fill:none;stroke:#000000;stroke-width:0.91299999;stroke-linecap:butt;stroke-linejoin:miter;stroke-miterlimit:4;stroke-opacity:1;stroke-dasharray:none;marker-start:url(#Arrow1Lstart);marker-end:none;visibility:hidden"
       d="m 190.43013,959.40889 -35.61123,0"
       id="rank_arrow_2"
       inkscape:connector-curvature="0"
       sodipodi:nodetypes="cc"
       inkscape:label="#path9189-4" />
    <rect
       style="fill:#008000;fill-opacity:1;stroke:#000000;stroke-width:0.92512637;stroke-miterlimit:0;stroke-opacity:1;stroke-dasharray:none"
       id="rect3813-9-5"
       width="465.27759"
       height="91.972893"
       x="191.02539"
       y="943.52448" />
    <path
       sodipodi:type="arc"
       style="fill:#ffffff;fill-opacity:1;stroke:#000000;stroke-width:0.86706549;stroke-linecap:butt;stroke-linejoin:miter;stroke-miterlimit:4;stroke-opacity:1;stroke-dasharray:none"
       id="path5955-3-3-7"
       sodipodi:cx="145.71451"
       sodipodi:cy="193.47998"
       sodipodi:rx="4.7982244"
       sodipodi:ry="4.7982244"
       d="m 150.51273,193.47998 c 0,2.64999 -2.14824,4.79822 -4.79822,4.79822 -2.64999,0 -4.79823,-2.14823 -4.79823,-4.79822 0,-2.64999 2.14824,-4.79822 4.79823,-4.79822 2.64998,0 4.79822,2.14823 4.79822,4.79822 z"
       transform="matrix(1.0607374,0,0,1.0607374,490.71934,816.66711)" />
    <rect
       style="fill:#333333;fill-opacity:1;stroke:#000000;stroke-width:1.04090405;stroke-linecap:butt;stroke-linejoin:miter;stroke-miterlimit:4;stroke-opacity:1;stroke-dasharray:none"
       id="dram8"
       width="28.609644"
       height="31.205091"
       x="221.68454"
       y="966.64917"
       inkscape:label="#rect6018-01-6" />
    <rect
       style="fill:#333333;fill-opacity:1;stroke:#000000;stroke-width:1.04090405;stroke-linecap:butt;stroke-linejoin:miter;stroke-miterlimit:4;stroke-opacity:1;stroke-dasharray:none"
       id="dram9"
       width="28.609644"
       height="31.205091"
       x="264.92838"
       y="966.64917"
       inkscape:label="#rect6018-6-9-3" />
    <rect
       style="fill:#333333;fill-opacity:1;stroke:#000000;stroke-width:1.04090405;stroke-linecap:butt;stroke-linejoin:miter;stroke-miterlimit:4;stroke-opacity:1;stroke-dasharray:none"
       id="dram10"
       width="28.609644"
       height="31.205091"
       x="308.86993"
       y="967.0434"
       inkscape:label="#rect6018-0-0-5" />
    <rect
       style="fill:#333333;fill-opacity:1;stroke:#000000;stroke-width:1.04090405;stroke-linecap:butt;stroke-linejoin:miter;stroke-miterlimit:4;stroke-opacity:1;stroke-dasharray:none"
       id="dram11"
       width="28.609644"
       height="31.205091"
       x="352.11386"
       y="967.0434"
       inkscape:label="#rect6018-6-6-4-6" />
    <rect
       style="fill:#333333;fill-opacity:1;stroke:#000000;stroke-width:1.04090405;stroke-linecap:butt;stroke-linejoin:miter;stroke-miterlimit:4;stroke-opacity:1;stroke-dasharray:none"
       id="dram12"
       width="28.609644"
       height="31.205091"
       x="465.12128"
       y="967.0434"
       inkscape:label="#rect6018-61-2-5" />
    <rect
       style="fill:#333333;fill-opacity:1;stroke:#000000;stroke-width:1.04090405;stroke-linecap:butt;stroke-linejoin:miter;stroke-miterlimit:4;stroke-opacity:1;stroke-dasharray:none"
       id="dram13"
       width="28.609644"
       height="31.205091"
       x="508.36517"
       y="967.0434"
       inkscape:label="#rect6018-6-8-9-8" />
    <rect
       style="fill:#333333;fill-opacity:1;stroke:#000000;stroke-width:1.04090405;stroke-linecap:butt;stroke-linejoin:miter;stroke-miterlimit:4;stroke-opacity:1;stroke-dasharray:none"
       id="dram14"
       width="28.609644"
       height="31.205091"
       x="552.3067"
       y="967.43744"
       inkscape:label="#rect6018-0-4-3-3" />
    <rect
       style="fill:#333333;fill-opacity:1;stroke:#000000;stroke-width:1.04090405;stroke-linecap:butt;stroke-linejoin:miter;stroke-miterlimit:4;stroke-opacity:1;stroke-dasharray:none"
       id="dram15"
       width="28.609644"
       height="31.205091"
       x="595.5506"
       y="967.43744"
       inkscape:label="#rect6018-6-6-9-1-9" />
    <path
       sodipodi:type="arc"
       style="fill:#ffffff;fill-opacity:1;stroke:#000000;stroke-width:2.67097569;stroke-linecap:round;stroke-linejoin:round;stroke-miterlimit:4;stroke-opacity:1;stroke-dasharray:none"
       id="path6122-2-5-9"
       sodipodi:cx="143.57143"
       sodipodi:cy="209.86218"
       sodipodi:rx="23.571428"
       sodipodi:ry="18.214285"
       d="m 120,209.86218 c 0,-10.05947 10.55329,-18.21428 23.57143,-18.21428 13.01814,0 23.57142,8.15481 23.57142,18.21428 l -23.57142,0 z"
       sodipodi:start="3.1415927"
       sodipodi:end="6.2831853"
       transform="matrix(0,-0.29915203,0.39635819,0,572.62358,1020.8763)" />
    <path
       sodipodi:type="arc"
       style="fill:#ffffff;fill-opacity:1;stroke:#000000;stroke-width:2.67097569;stroke-linecap:round;stroke-linejoin:round;stroke-miterlimit:4;stroke-opacity:1;stroke-dasharray:none"
       id="path6122-2-9-5-7"
       sodipodi:cx="143.57143"
       sodipodi:cy="209.86218"
       sodipodi:rx="23.571428"
       sodipodi:ry="18.214285"
       d="m 120,209.86218 c 0,-10.05947 10.55329,-18.21428 23.57143,-18.21428 13.01814,0 23.57142,8.15481 23.57142,18.21428 l -23.57142,0 z"
       sodipodi:start="3.1415927"
       sodipodi:end="6.2831853"
       transform="matrix(0,-0.29915203,0.39635819,0,573.07223,1046.7165)" />
    <rect
       style="fill:#008000;fill-opacity:1;stroke:#000000;stroke-width:0.92512637;stroke-miterlimit:0;stroke-opacity:1;stroke-dasharray:none"
       id="rect3813-96"
       width="465.27759"
       height="91.972893"
       x="183.92827"
       y="952.84607" />
    <rect
       style="fill:#d4aa00;fill-opacity:1;stroke:#000000;stroke-width:0.65491557;stroke-linecap:butt;stroke-linejoin:miter;stroke-miterlimit:4;stroke-opacity:1;stroke-dasharray:none"
       id="rect5637-0-45"
       width="5.4752712"
       height="15.039598"
       x="203.37511"
       y="1029.3806" />
    <rect
       style="fill:#d4aa00;fill-opacity:1;stroke:#000000;stroke-width:0.65491557;stroke-linecap:butt;stroke-linejoin:miter;stroke-miterlimit:4;stroke-opacity:1;stroke-dasharray:none"
       id="rect5637-8-4"
       width="5.4752712"
       height="15.039598"
       x="210.59596"
       y="1029.3806" />
    <rect
       style="fill:#d4aa00;fill-opacity:1;stroke:#000000;stroke-width:0.65491557;stroke-linecap:butt;stroke-linejoin:miter;stroke-miterlimit:4;stroke-opacity:1;stroke-dasharray:none"
       id="rect5637-0-8-2"
       width="5.4752712"
       height="15.039598"
       x="217.8336"
       y="1029.3806" />
    <rect
       style="fill:#d4aa00;fill-opacity:1;stroke:#000000;stroke-width:0.65491557;stroke-linecap:butt;stroke-linejoin:miter;stroke-miterlimit:4;stroke-opacity:1;stroke-dasharray:none"
       id="rect5637-5-5"
       width="5.4752712"
       height="15.039598"
       x="224.41345"
       y="1029.3806" />
    <rect
       style="fill:#d4aa00;fill-opacity:1;stroke:#000000;stroke-width:0.65491557;stroke-linecap:butt;stroke-linejoin:miter;stroke-miterlimit:4;stroke-opacity:1;stroke-dasharray:none"
       id="rect5637-0-2-3"
       width="5.4752712"
       height="15.039598"
       x="231.65111"
       y="1029.3806" />
    <rect
       style="fill:#d4aa00;fill-opacity:1;stroke:#000000;stroke-width:0.65491557;stroke-linecap:butt;stroke-linejoin:miter;stroke-miterlimit:4;stroke-opacity:1;stroke-dasharray:none"
       id="rect5637-8-7-2"
       width="5.4752712"
       height="15.039598"
       x="238.87195"
       y="1029.3806" />
    <rect
       style="fill:#d4aa00;fill-opacity:1;stroke:#000000;stroke-width:0.65491557;stroke-linecap:butt;stroke-linejoin:miter;stroke-miterlimit:4;stroke-opacity:1;stroke-dasharray:none"
       id="rect5637-0-8-6-6"
       width="5.4752712"
       height="15.039598"
       x="246.1096"
       y="1029.3806" />
    <rect
       style="fill:#d4aa00;fill-opacity:1;stroke:#000000;stroke-width:0.65491557;stroke-linecap:butt;stroke-linejoin:miter;stroke-miterlimit:4;stroke-opacity:1;stroke-dasharray:none"
       id="rect5637-1-8"
       width="5.4752712"
       height="15.039598"
       x="253.62331"
       y="1029.3806" />
    <rect
       style="fill:#d4aa00;fill-opacity:1;stroke:#000000;stroke-width:0.65491557;stroke-linecap:butt;stroke-linejoin:miter;stroke-miterlimit:4;stroke-opacity:1;stroke-dasharray:none"
       id="rect5637-0-4-2"
       width="5.4752712"
       height="15.039598"
       x="260.86096"
       y="1029.3806" />
    <rect
       style="fill:#d4aa00;fill-opacity:1;stroke:#000000;stroke-width:0.65491557;stroke-linecap:butt;stroke-linejoin:miter;stroke-miterlimit:4;stroke-opacity:1;stroke-dasharray:none"
       id="rect5637-8-2-6"
       width="5.4752712"
       height="15.039598"
       x="268.08179"
       y="1029.3806" />
    <rect
       style="fill:#d4aa00;fill-opacity:1;stroke:#000000;stroke-width:0.65491557;stroke-linecap:butt;stroke-linejoin:miter;stroke-miterlimit:4;stroke-opacity:1;stroke-dasharray:none"
       id="rect5637-0-8-3-6"
       width="5.4752712"
       height="15.039598"
       x="275.31943"
       y="1029.3806" />
    <rect
       style="fill:#d4aa00;fill-opacity:1;stroke:#000000;stroke-width:0.65491557;stroke-linecap:butt;stroke-linejoin:miter;stroke-miterlimit:4;stroke-opacity:1;stroke-dasharray:none"
       id="rect5637-2-3"
       width="5.4752712"
       height="15.039598"
       x="282.52908"
       y="1029.3806" />
    <rect
       style="fill:#d4aa00;fill-opacity:1;stroke:#000000;stroke-width:0.65491557;stroke-linecap:butt;stroke-linejoin:miter;stroke-miterlimit:4;stroke-opacity:1;stroke-dasharray:none"
       id="rect5637-0-21-94"
       width="5.4752712"
       height="15.039598"
       x="289.76669"
       y="1029.3806" />
    <rect
       style="fill:#d4aa00;fill-opacity:1;stroke:#000000;stroke-width:0.65491557;stroke-linecap:butt;stroke-linejoin:miter;stroke-miterlimit:4;stroke-opacity:1;stroke-dasharray:none"
       id="rect5637-8-6-56"
       width="5.4752712"
       height="15.039598"
       x="296.98749"
       y="1029.3806" />
    <rect
       style="fill:#d4aa00;fill-opacity:1;stroke:#000000;stroke-width:0.65491557;stroke-linecap:butt;stroke-linejoin:miter;stroke-miterlimit:4;stroke-opacity:1;stroke-dasharray:none"
       id="rect5637-0-8-8-2"
       width="5.4752712"
       height="15.039598"
       x="304.22522"
       y="1029.3806" />
    <rect
       style="fill:#d4aa00;fill-opacity:1;stroke:#000000;stroke-width:0.65491557;stroke-linecap:butt;stroke-linejoin:miter;stroke-miterlimit:4;stroke-opacity:1;stroke-dasharray:none"
       id="rect5637-57-5"
       width="5.4752712"
       height="15.039598"
       x="311.43484"
       y="1029.3806" />
    <rect
       style="fill:#d4aa00;fill-opacity:1;stroke:#000000;stroke-width:0.65491557;stroke-linecap:butt;stroke-linejoin:miter;stroke-miterlimit:4;stroke-opacity:1;stroke-dasharray:none"
       id="rect5637-0-6-3"
       width="5.4752712"
       height="15.039598"
       x="318.67252"
       y="1029.3806" />
    <rect
       style="fill:#d4aa00;fill-opacity:1;stroke:#000000;stroke-width:0.65491557;stroke-linecap:butt;stroke-linejoin:miter;stroke-miterlimit:4;stroke-opacity:1;stroke-dasharray:none"
       id="rect5637-8-1-5"
       width="5.4752712"
       height="15.039598"
       x="325.89331"
       y="1029.3806" />
    <rect
       style="fill:#d4aa00;fill-opacity:1;stroke:#000000;stroke-width:0.65491557;stroke-linecap:butt;stroke-linejoin:miter;stroke-miterlimit:4;stroke-opacity:1;stroke-dasharray:none"
       id="rect5637-0-8-89-66"
       width="5.4752712"
       height="15.039598"
       x="333.13098"
       y="1029.3806" />
    <rect
       style="fill:#d4aa00;fill-opacity:1;stroke:#000000;stroke-width:0.65491557;stroke-linecap:butt;stroke-linejoin:miter;stroke-miterlimit:4;stroke-opacity:1;stroke-dasharray:none"
       id="rect5637-27-1"
       width="5.4752712"
       height="15.039598"
       x="340.01212"
       y="1029.3806" />
    <rect
       style="fill:#d4aa00;fill-opacity:1;stroke:#000000;stroke-width:0.65491557;stroke-linecap:butt;stroke-linejoin:miter;stroke-miterlimit:4;stroke-opacity:1;stroke-dasharray:none"
       id="rect5637-0-9-4"
       width="5.4752712"
       height="15.039598"
       x="347.24979"
       y="1029.3806" />
    <rect
       style="fill:#d4aa00;fill-opacity:1;stroke:#000000;stroke-width:0.65491557;stroke-linecap:butt;stroke-linejoin:miter;stroke-miterlimit:4;stroke-opacity:1;stroke-dasharray:none"
       id="rect5637-8-5-46"
       width="5.4752712"
       height="15.039598"
       x="354.47058"
       y="1029.3806" />
    <rect
       style="fill:#d4aa00;fill-opacity:1;stroke:#000000;stroke-width:0.65491557;stroke-linecap:butt;stroke-linejoin:miter;stroke-miterlimit:4;stroke-opacity:1;stroke-dasharray:none"
       id="rect5637-0-8-4-2"
       width="5.4752712"
       height="15.039598"
       x="361.70825"
       y="1029.3806" />
    <rect
       style="fill:#d4aa00;fill-opacity:1;stroke:#000000;stroke-width:0.65491557;stroke-linecap:butt;stroke-linejoin:miter;stroke-miterlimit:4;stroke-opacity:1;stroke-dasharray:none"
       id="rect5637-3-68"
       width="5.4752712"
       height="15.039598"
       x="368.91791"
       y="1029.3806" />
    <rect
       style="fill:#d4aa00;fill-opacity:1;stroke:#000000;stroke-width:0.65491557;stroke-linecap:butt;stroke-linejoin:miter;stroke-miterlimit:4;stroke-opacity:1;stroke-dasharray:none"
       id="rect5637-0-1-2"
       width="5.4752712"
       height="15.039598"
       x="376.15555"
       y="1029.3806" />
    <rect
       style="fill:#d4aa00;fill-opacity:1;stroke:#000000;stroke-width:0.65491557;stroke-linecap:butt;stroke-linejoin:miter;stroke-miterlimit:4;stroke-opacity:1;stroke-dasharray:none"
       id="rect5637-8-23-5"
       width="5.4752712"
       height="15.039598"
       x="383.37634"
       y="1029.3806" />
    <rect
       style="fill:#d4aa00;fill-opacity:1;stroke:#000000;stroke-width:0.65491557;stroke-linecap:butt;stroke-linejoin:miter;stroke-miterlimit:4;stroke-opacity:1;stroke-dasharray:none"
       id="rect5637-0-8-34-5"
       width="5.4752712"
       height="15.039598"
       x="390.61411"
       y="1029.3806" />
    <rect
       style="fill:#d4aa00;fill-opacity:1;stroke:#000000;stroke-width:0.65491557;stroke-linecap:butt;stroke-linejoin:miter;stroke-miterlimit:4;stroke-opacity:1;stroke-dasharray:none"
       id="rect5637-11-1"
       width="5.4752712"
       height="15.039598"
       x="398.15073"
       y="1029.3806" />
    <rect
       style="fill:#d4aa00;fill-opacity:1;stroke:#000000;stroke-width:0.65491557;stroke-linecap:butt;stroke-linejoin:miter;stroke-miterlimit:4;stroke-opacity:1;stroke-dasharray:none"
       id="rect5637-5-4-0"
       width="5.4752712"
       height="15.039598"
       x="426.42667"
       y="1029.3806" />
    <rect
       style="fill:#d4aa00;fill-opacity:1;stroke:#000000;stroke-width:0.65491557;stroke-linecap:butt;stroke-linejoin:miter;stroke-miterlimit:4;stroke-opacity:1;stroke-dasharray:none"
       id="rect5637-0-2-2-1"
       width="5.4752712"
       height="15.039598"
       x="433.66434"
       y="1029.3806" />
    <rect
       style="fill:#d4aa00;fill-opacity:1;stroke:#000000;stroke-width:0.65491557;stroke-linecap:butt;stroke-linejoin:miter;stroke-miterlimit:4;stroke-opacity:1;stroke-dasharray:none"
       id="rect5637-8-7-7-5"
       width="5.4752712"
       height="15.039598"
       x="440.88519"
       y="1029.3806" />
    <rect
       style="fill:#d4aa00;fill-opacity:1;stroke:#000000;stroke-width:0.65491557;stroke-linecap:butt;stroke-linejoin:miter;stroke-miterlimit:4;stroke-opacity:1;stroke-dasharray:none"
       id="rect5637-0-8-6-7-1"
       width="5.4752712"
       height="15.039598"
       x="448.12289"
       y="1029.3806" />
    <rect
       style="fill:#d4aa00;fill-opacity:1;stroke:#000000;stroke-width:0.65491557;stroke-linecap:butt;stroke-linejoin:miter;stroke-miterlimit:4;stroke-opacity:1;stroke-dasharray:none"
       id="rect5637-1-9-7"
       width="5.4752712"
       height="15.039598"
       x="455.63657"
       y="1029.3806" />
    <rect
       style="fill:#d4aa00;fill-opacity:1;stroke:#000000;stroke-width:0.65491557;stroke-linecap:butt;stroke-linejoin:miter;stroke-miterlimit:4;stroke-opacity:1;stroke-dasharray:none"
       id="rect5637-0-4-3-6"
       width="5.4752712"
       height="15.039598"
       x="462.87427"
       y="1029.3806" />
    <rect
       style="fill:#d4aa00;fill-opacity:1;stroke:#000000;stroke-width:0.65491557;stroke-linecap:butt;stroke-linejoin:miter;stroke-miterlimit:4;stroke-opacity:1;stroke-dasharray:none"
       id="rect5637-8-2-1-0"
       width="5.4752712"
       height="15.039598"
       x="470.095"
       y="1029.3806" />
    <rect
       style="fill:#d4aa00;fill-opacity:1;stroke:#000000;stroke-width:0.65491557;stroke-linecap:butt;stroke-linejoin:miter;stroke-miterlimit:4;stroke-opacity:1;stroke-dasharray:none"
       id="rect5637-0-8-3-9-0"
       width="5.4752712"
       height="15.039598"
       x="477.33273"
       y="1029.3806" />
    <rect
       style="fill:#d4aa00;fill-opacity:1;stroke:#000000;stroke-width:0.65491557;stroke-linecap:butt;stroke-linejoin:miter;stroke-miterlimit:4;stroke-opacity:1;stroke-dasharray:none"
       id="rect5637-2-8-2"
       width="5.4752712"
       height="15.039598"
       x="484.54224"
       y="1029.3806" />
    <rect
       style="fill:#d4aa00;fill-opacity:1;stroke:#000000;stroke-width:0.65491557;stroke-linecap:butt;stroke-linejoin:miter;stroke-miterlimit:4;stroke-opacity:1;stroke-dasharray:none"
       id="rect5637-0-21-6-4"
       width="5.4752712"
       height="15.039598"
       x="491.77997"
       y="1029.3806" />
    <rect
       style="fill:#d4aa00;fill-opacity:1;stroke:#000000;stroke-width:0.65491557;stroke-linecap:butt;stroke-linejoin:miter;stroke-miterlimit:4;stroke-opacity:1;stroke-dasharray:none"
       id="rect5637-8-6-5-3"
       width="5.4752712"
       height="15.039598"
       x="499.00085"
       y="1029.3806" />
    <rect
       style="fill:#d4aa00;fill-opacity:1;stroke:#000000;stroke-width:0.65491557;stroke-linecap:butt;stroke-linejoin:miter;stroke-miterlimit:4;stroke-opacity:1;stroke-dasharray:none"
       id="rect5637-0-8-8-0-3"
       width="5.4752712"
       height="15.039598"
       x="506.23849"
       y="1029.3806" />
    <rect
       style="fill:#d4aa00;fill-opacity:1;stroke:#000000;stroke-width:0.65491557;stroke-linecap:butt;stroke-linejoin:miter;stroke-miterlimit:4;stroke-opacity:1;stroke-dasharray:none"
       id="rect5637-0-6-2-6"
       width="5.4752712"
       height="15.039598"
       x="520.68573"
       y="1029.3806" />
    <rect
       style="fill:#d4aa00;fill-opacity:1;stroke:#000000;stroke-width:0.65491557;stroke-linecap:butt;stroke-linejoin:miter;stroke-miterlimit:4;stroke-opacity:1;stroke-dasharray:none"
       id="rect5637-8-1-8-28"
       width="5.4752712"
       height="15.039598"
       x="527.90662"
       y="1029.3806" />
    <rect
       style="fill:#d4aa00;fill-opacity:1;stroke:#000000;stroke-width:0.65491557;stroke-linecap:butt;stroke-linejoin:miter;stroke-miterlimit:4;stroke-opacity:1;stroke-dasharray:none"
       id="rect5637-0-8-89-6-2"
       width="5.4752712"
       height="15.039598"
       x="535.14429"
       y="1029.3806" />
    <rect
       style="fill:#d4aa00;fill-opacity:1;stroke:#000000;stroke-width:0.65491557;stroke-linecap:butt;stroke-linejoin:miter;stroke-miterlimit:4;stroke-opacity:1;stroke-dasharray:none"
       id="rect5637-27-0-3"
       width="5.4752712"
       height="15.039598"
       x="542.02551"
       y="1029.3806" />
    <rect
       style="fill:#d4aa00;fill-opacity:1;stroke:#000000;stroke-width:0.65491557;stroke-linecap:butt;stroke-linejoin:miter;stroke-miterlimit:4;stroke-opacity:1;stroke-dasharray:none"
       id="rect5637-0-9-2-4"
       width="5.4752712"
       height="15.039598"
       x="549.263"
       y="1029.3806" />
    <rect
       style="fill:#d4aa00;fill-opacity:1;stroke:#000000;stroke-width:0.65491557;stroke-linecap:butt;stroke-linejoin:miter;stroke-miterlimit:4;stroke-opacity:1;stroke-dasharray:none"
       id="rect5637-8-5-4-3"
       width="5.4752712"
       height="15.039598"
       x="556.48401"
       y="1029.3806" />
    <rect
       style="fill:#d4aa00;fill-opacity:1;stroke:#000000;stroke-width:0.65491557;stroke-linecap:butt;stroke-linejoin:miter;stroke-miterlimit:4;stroke-opacity:1;stroke-dasharray:none"
       id="rect5637-0-8-4-8-43"
       width="5.4752712"
       height="15.039598"
       x="563.72162"
       y="1029.3806" />
    <rect
       style="fill:#d4aa00;fill-opacity:1;stroke:#000000;stroke-width:0.65491557;stroke-linecap:butt;stroke-linejoin:miter;stroke-miterlimit:4;stroke-opacity:1;stroke-dasharray:none"
       id="rect5637-3-6-68"
       width="5.4752712"
       height="15.039598"
       x="570.93121"
       y="1029.3806" />
    <rect
       style="fill:#d4aa00;fill-opacity:1;stroke:#000000;stroke-width:0.65491557;stroke-linecap:butt;stroke-linejoin:miter;stroke-miterlimit:4;stroke-opacity:1;stroke-dasharray:none"
       id="rect5637-0-1-5-4"
       width="5.4752712"
       height="15.039598"
       x="578.16895"
       y="1029.3806" />
    <rect
       style="fill:#d4aa00;fill-opacity:1;stroke:#000000;stroke-width:0.65491557;stroke-linecap:butt;stroke-linejoin:miter;stroke-miterlimit:4;stroke-opacity:1;stroke-dasharray:none"
       id="rect5637-8-23-0-7"
       width="5.4752712"
       height="15.039598"
       x="585.38977"
       y="1029.3806" />
    <rect
       style="fill:#d4aa00;fill-opacity:1;stroke:#000000;stroke-width:0.65491557;stroke-linecap:butt;stroke-linejoin:miter;stroke-miterlimit:4;stroke-opacity:1;stroke-dasharray:none"
       id="rect5637-0-8-34-9-3"
       width="5.4752712"
       height="15.039598"
       x="592.62732"
       y="1029.3806" />
    <rect
       style="fill:#d4aa00;fill-opacity:1;stroke:#000000;stroke-width:0.65491557;stroke-linecap:butt;stroke-linejoin:miter;stroke-miterlimit:4;stroke-opacity:1;stroke-dasharray:none"
       id="rect5637-0-8-8-0-0-9"
       width="5.4752712"
       height="15.039598"
       x="513.45514"
       y="1029.3806" />
    <rect
       style="fill:#d4aa00;fill-opacity:1;stroke:#000000;stroke-width:0.65491557;stroke-linecap:butt;stroke-linejoin:miter;stroke-miterlimit:4;stroke-opacity:1;stroke-dasharray:none"
       id="rect5637-0-8-4-8-0-8"
       width="5.4752712"
       height="15.039598"
       x="600.17236"
       y="1029.3806" />
    <rect
       style="fill:#d4aa00;fill-opacity:1;stroke:#000000;stroke-width:0.65491557;stroke-linecap:butt;stroke-linejoin:miter;stroke-miterlimit:4;stroke-opacity:1;stroke-dasharray:none"
       id="rect5637-3-6-6-0"
       width="5.4752712"
       height="15.039598"
       x="607.38196"
       y="1029.3806" />
    <rect
       style="fill:#d4aa00;fill-opacity:1;stroke:#000000;stroke-width:0.65491557;stroke-linecap:butt;stroke-linejoin:miter;stroke-miterlimit:4;stroke-opacity:1;stroke-dasharray:none"
       id="rect5637-0-1-5-1-0"
       width="5.4752712"
       height="15.039598"
       x="614.61969"
       y="1029.3806" />
    <rect
       style="fill:#d4aa00;fill-opacity:1;stroke:#000000;stroke-width:0.65491557;stroke-linecap:butt;stroke-linejoin:miter;stroke-miterlimit:4;stroke-opacity:1;stroke-dasharray:none"
       id="rect5637-8-23-0-3-8"
       width="5.4752712"
       height="15.039598"
       x="621.84058"
       y="1029.3806" />
    <path
       sodipodi:type="arc"
       style="fill:#ffffff;fill-opacity:1;stroke:#000000;stroke-width:0.86706549;stroke-linecap:butt;stroke-linejoin:miter;stroke-miterlimit:4;stroke-opacity:1;stroke-dasharray:none"
       id="path5955-8"
       sodipodi:cx="145.71451"
       sodipodi:cy="193.47998"
       sodipodi:rx="4.7982244"
       sodipodi:ry="4.7982244"
       d="m 150.51273,193.47998 c 0,2.64999 -2.14824,4.79822 -4.79822,4.79822 -2.64999,0 -4.79823,-2.14823 -4.79823,-4.79822 0,-2.64999 2.14824,-4.79822 4.79823,-4.79822 2.64998,0 4.79822,2.14823 4.79822,4.79822 z"
       transform="matrix(1.0607374,0,0,1.0607374,39.358963,825.98868)" />
    <path
       sodipodi:type="arc"
       style="fill:#ffffff;fill-opacity:1;stroke:#000000;stroke-width:0.86706549;stroke-linecap:butt;stroke-linejoin:miter;stroke-miterlimit:4;stroke-opacity:1;stroke-dasharray:none"
       id="path5955-3-0"
       sodipodi:cx="145.71451"
       sodipodi:cy="193.47998"
       sodipodi:rx="4.7982244"
       sodipodi:ry="4.7982244"
       d="m 150.51273,193.47998 c 0,2.64999 -2.14824,4.79822 -4.79822,4.79822 -2.64999,0 -4.79823,-2.14823 -4.79823,-4.79822 0,-2.64999 2.14824,-4.79822 4.79823,-4.79822 2.64998,0 4.79822,2.14823 4.79822,4.79822 z"
       transform="matrix(1.0607374,0,0,1.0607374,483.62225,825.98868)" />
    <rect
       class="dram0"
       style="fill:#333333;fill-opacity:1;stroke:#000000;stroke-width:1.04090405;stroke-linecap:butt;stroke-linejoin:miter;stroke-miterlimit:4;stroke-opacity:1;stroke-dasharray:none"
       id="dram0"
       width="28.609644"
       height="31.205091"
       x="214.5874"
       y="975.97076"
       inkscape:label="#rect6018-5" />
    <rect
       class="dram1"
       style="fill:#333333;fill-opacity:1;stroke:#000000;stroke-width:1.04090405;stroke-linecap:butt;stroke-linejoin:miter;stroke-miterlimit:4;stroke-opacity:1;stroke-dasharray:none"
       id="dram1"
       width="28.609644"
       height="31.205091"
       x="257.8313"
       y="975.97076"
       inkscape:label="#rect6018-6-1" />
    <rect
       class="dram2"
       style="fill:#333333;fill-opacity:1;stroke:#000000;stroke-width:1.04090405;stroke-linecap:butt;stroke-linejoin:miter;stroke-miterlimit:4;stroke-opacity:1;stroke-dasharray:none"
       id="dram2"
       width="28.609644"
       height="31.205091"
       x="301.77286"
       y="976.36493"
       inkscape:label="#rect6018-0-43" />
    <rect
       class="dram3"
       style="fill:#333333;fill-opacity:1;stroke:#000000;stroke-width:1.04090405;stroke-linecap:butt;stroke-linejoin:miter;stroke-miterlimit:4;stroke-opacity:1;stroke-dasharray:none"
       id="dram3"
       width="28.609644"
       height="31.205091"
       x="345.01678"
       y="976.36493"
       inkscape:label="#rect6018-6-6-6" />
    <rect
       class="dram4"
       style="fill:#333333;fill-opacity:1;stroke:#000000;stroke-width:1.04090405;stroke-linecap:butt;stroke-linejoin:miter;stroke-miterlimit:4;stroke-opacity:1;stroke-dasharray:none"
       id="dram4"
       width="28.609644"
       height="31.205091"
       x="458.02402"
       y="976.36493"
       inkscape:label="#rect6018-61-3" />
    <rect
       class="dram6"
       style="fill:#333333;fill-opacity:1;stroke:#000000;stroke-width:1.04090405;stroke-linecap:butt;stroke-linejoin:miter;stroke-miterlimit:4;stroke-opacity:1;stroke-dasharray:none"
       id="dram6"
       width="28.609644"
       height="31.205091"
       x="545.20953"
       y="976.75903"
       inkscape:label="#rect6018-0-4-1" />
    <rect
       class="dram7"
       style="fill:#333333;fill-opacity:1;stroke:#000000;stroke-width:1.04090405;stroke-linecap:butt;stroke-linejoin:miter;stroke-miterlimit:4;stroke-opacity:1;stroke-dasharray:none"
       id="dram7"
       width="28.609644"
       height="31.205091"
       x="588.45355"
       y="976.75903"
       inkscape:label="#rect6018-6-6-9-9" />
    <rect
       style="fill:#333333;fill-opacity:1;stroke:#000000;stroke-width:0.30289838;stroke-linecap:butt;stroke-linejoin:miter;stroke-miterlimit:4;stroke-opacity:1;stroke-dasharray:none"
       id="rect6018-63-8"
       width="8.3252764"
       height="9.0805397"
       x="629.42694"
       y="990.62067" />
    <path
       sodipodi:type="arc"
       style="fill:#ffffff;fill-opacity:1;stroke:#000000;stroke-width:2.67097569;stroke-linecap:round;stroke-linejoin:round;stroke-miterlimit:4;stroke-opacity:1;stroke-dasharray:none"
       id="path6122-23"
       sodipodi:cx="143.57143"
       sodipodi:cy="209.86218"
       sodipodi:rx="23.571428"
       sodipodi:ry="18.214285"
       d="m 120,209.86218 c 0,-10.05947 10.55329,-18.21428 23.57143,-18.21428 13.01814,0 23.57142,8.15481 23.57142,18.21428 l -23.57142,0 z"
       sodipodi:start="3.1415927"
       sodipodi:end="6.2831853"
       transform="matrix(0,0.29915203,-0.39635819,0,267.4596,944.29849)" />
    <path
       sodipodi:type="arc"
       style="fill:#ffffff;fill-opacity:1;stroke:#000000;stroke-width:2.67097569;stroke-linecap:round;stroke-linejoin:round;stroke-miterlimit:4;stroke-opacity:1;stroke-dasharray:none"
       id="path6122-8-4"
       sodipodi:cx="143.57143"
       sodipodi:cy="209.86218"
       sodipodi:rx="23.571428"
       sodipodi:ry="18.214285"
       d="m 120,209.86218 c 0,-10.05947 10.55329,-18.21428 23.57143,-18.21428 13.01814,0 23.57142,8.15481 23.57142,18.21428 l -23.57142,0 z"
       sodipodi:start="3.1415927"
       sodipodi:end="6.2831853"
       transform="matrix(0,0.29915203,-0.39635819,0,266.96062,969.74451)" />
    <path
       sodipodi:type="arc"
       style="fill:#ffffff;fill-opacity:1;stroke:#000000;stroke-width:2.67097569;stroke-linecap:round;stroke-linejoin:round;stroke-miterlimit:4;stroke-opacity:1;stroke-dasharray:none"
       id="path6122-2-0"
       sodipodi:cx="143.57143"
       sodipodi:cy="209.86218"
       sodipodi:rx="23.571428"
       sodipodi:ry="18.214285"
       d="m 120,209.86218 c 0,-10.05947 10.55329,-18.21428 23.57143,-18.21428 13.01814,0 23.57142,8.15481 23.57142,18.21428 l -23.57142,0 z"
       sodipodi:start="3.1415927"
       sodipodi:end="6.2831853"
       transform="matrix(0,-0.29915203,0.39635819,0,565.5265,1030.1979)" />
    <path
       sodipodi:type="arc"
       style="fill:#ffffff;fill-opacity:1;stroke:#000000;stroke-width:2.67097569;stroke-linecap:round;stroke-linejoin:round;stroke-miterlimit:4;stroke-opacity:1;stroke-dasharray:none"
       id="path6122-2-9-2"
       sodipodi:cx="143.57143"
       sodipodi:cy="209.86218"
       sodipodi:rx="23.571428"
       sodipodi:ry="18.214285"
       d="m 120,209.86218 c 0,-10.05947 10.55329,-18.21428 23.57143,-18.21428 13.01814,0 23.57142,8.15481 23.57142,18.21428 l -23.57142,0 z"
       sodipodi:start="3.1415927"
       sodipodi:end="6.2831853"
       transform="matrix(0,-0.29915203,0.39635819,0,565.97515,1056.038)" />
    <path
       sodipodi:type="arc"
       style="fill:#ffffff;fill-opacity:1;stroke:#000000;stroke-width:1;stroke-linecap:round;stroke-linejoin:round;stroke-miterlimit:4;stroke-opacity:1;stroke-dasharray:none"
       id="path6234-3"
       sodipodi:cx="380.35715"
       sodipodi:cy="160.75504"
       sodipodi:rx="3.75"
       sodipodi:ry="21.607143"
       d="m 376.60715,160.75503 c 0,-11.93329 1.67893,-21.60714 3.75,-21.60714 2.07107,0 3.75,9.67385 3.75,21.60715 l -3.75,0 z"
       sodipodi:start="3.1415927"
       sodipodi:end="6.2831853"
       transform="matrix(1.1521741,0,0,0.87758787,-23.073512,903.5781)" />
    <rect
       style="fill:#cccccc;fill-opacity:1;stroke:#000000;stroke-width:0.42290965;stroke-linecap:butt;stroke-linejoin:miter;stroke-miterlimit:1;stroke-opacity:1;stroke-dasharray:none"
       id="rect6236-1"
       width="1.4859669"
       height="7.6778464"
       x="629.44501"
       y="982.77856" />
    <rect
       style="fill:#cccccc;fill-opacity:1;stroke:#000000;stroke-width:0.42446244;stroke-linecap:butt;stroke-linejoin:miter;stroke-miterlimit:1;stroke-opacity:1;stroke-dasharray:none"
       id="rect6236-5-9"
       width="1.4914229"
       height="7.706037"
       x="631.72693"
       y="982.71167" />
    <rect
       style="fill:#cccccc;fill-opacity:1;stroke:#000000;stroke-width:0.42446244;stroke-linecap:butt;stroke-linejoin:miter;stroke-miterlimit:1;stroke-opacity:1;stroke-dasharray:none"
       id="rect6236-8-8"
       width="1.4914229"
       height="7.706037"
       x="634.02637"
       y="982.71167" />
    <rect
       style="fill:#cccccc;fill-opacity:1;stroke:#000000;stroke-width:0.42898569;stroke-linecap:butt;stroke-linejoin:miter;stroke-miterlimit:1;stroke-opacity:1;stroke-dasharray:none"
       id="rect6236-4-9"
       width="1.5073161"
       height="7.7881556"
       x="636.2356"
       y="982.71167" />
    <rect
       style="fill:#cccccc;fill-opacity:1;stroke:#000000;stroke-width:0.42290965;stroke-linecap:butt;stroke-linejoin:miter;stroke-miterlimit:1;stroke-opacity:1;stroke-dasharray:none"
       id="rect6236-3-89"
       width="1.4859669"
       height="7.6778464"
       x="629.38977"
       y="999.88489" />
    <rect
       style="fill:#cccccc;fill-opacity:1;stroke:#000000;stroke-width:0.42446244;stroke-linecap:butt;stroke-linejoin:miter;stroke-miterlimit:1;stroke-opacity:1;stroke-dasharray:none"
       id="rect6236-5-7-13"
       width="1.4914229"
       height="7.706037"
       x="631.67175"
       y="999.81799" />
    <rect
       style="fill:#cccccc;fill-opacity:1;stroke:#000000;stroke-width:0.42446244;stroke-linecap:butt;stroke-linejoin:miter;stroke-miterlimit:1;stroke-opacity:1;stroke-dasharray:none"
       id="rect6236-8-2-5"
       width="1.4914229"
       height="7.706037"
       x="633.97113"
       y="999.81799" />
    <rect
       style="fill:#cccccc;fill-opacity:1;stroke:#000000;stroke-width:0.42898569;stroke-linecap:butt;stroke-linejoin:miter;stroke-miterlimit:1;stroke-opacity:1;stroke-dasharray:none"
       id="rect6236-4-6-1"
       width="1.5073161"
       height="7.7881556"
       x="636.1803"
       y="999.81799" />
    <path
       sodipodi:type="arc"
       style="color:#000000;fill:none;stroke:#ff0000;stroke-width:2;stroke-linecap:butt;stroke-linejoin:miter;stroke-miterlimit:4;stroke-opacity:1;stroke-dasharray:none;stroke-dashoffset:0;marker:none;visibility:visible;display:inline;overflow:visible;enable-background:accumulate"
       id="dram_circle_2"
       sodipodi:cx="519.13684"
       sodipodi:cy="153.68936"
       sodipodi:rx="25.401192"
       sodipodi:ry="27.782553"
       d="m 544.53803,153.68936 c 0,15.34388 -11.3725,27.78255 -25.40119,27.78255 -14.02869,0 -25.40119,-12.43867 -25.40119,-27.78255 0,-15.34388 11.3725,-27.78255 25.40119,-27.78255 14.02869,0 25.40119,12.43867 25.40119,27.78255 z"
       transform="matrix(0.89468412,0,0,1,51.502087,838.24559)"
       inkscape:label="#path4112" />
    <path
       style="fill:none;stroke:#ff0000;stroke-width:2;stroke-linecap:butt;stroke-linejoin:miter;stroke-opacity:1;stroke-miterlimit:4;stroke-dasharray:none"
       d="M 519.75669,25.315813 532.10512,-2.7488035"
       id="dram_arrow_2"
       inkscape:connector-curvature="0"
       transform="translate(0,938.362)"
       inkscape:label="#path4114" />
    <path
       style="fill:none;stroke:#800080;stroke-width:2;stroke-linecap:butt;stroke-linejoin:miter;stroke-miterlimit:4;stroke-opacity:1;stroke-dasharray:none;marker-end:none"
       d="m 656.9905,997.26335 153.91742,0"
       id="last_output_channel"
       class="output_channel"
       inkscape:connector-curvature="0"
       inkscape:label="#path8956-1-7" />
    <rect
       class="dram5"
       style="fill:#333333;fill-opacity:1;stroke:#000000;stroke-width:1.04090405;stroke-linecap:butt;stroke-linejoin:miter;stroke-miterlimit:4;stroke-opacity:1;stroke-dasharray:none"
       id="dram5"
       width="28.609644"
       height="31.205091"
       x="501.26804"
       y="976.36493"
       inkscape:label="#rect6018-6-8-92" />
    <path
       style="fill:none;stroke:#000000;stroke-width:0;stroke-linecap:butt;stroke-linejoin:miter;stroke-miterlimit:4;stroke-opacity:1;stroke-dasharray:none;marker-end:url(#Arrow1Lend)"
       d="m 483.92709,1496.8002 56.8261,0"
       id="path8159"
       inkscape:connector-curvature="0" />
    <path
       style="fill:none;stroke:#ff6600;stroke-width:2;stroke-linecap:butt;stroke-linejoin:miter;stroke-miterlimit:4;stroke-opacity:1;stroke-dasharray:none"
       d="m 19.156668,1053.5245 0,-57.18658"
       id="bus_part_4"
       class="bus_part"
       inkscape:connector-curvature="0"
       inkscape:label="#path8764" />
    <path
       style="fill:none;stroke:#ff6600;stroke-width:2;stroke-linecap:butt;stroke-linejoin:miter;stroke-miterlimit:4;stroke-opacity:1;stroke-dasharray:none;marker-end:url(#Arrow1Lend-4)"
       d="m 19.644704,997.33061 154.031706,0"
       id="last_input_channel"
       class="input_channel"
       inkscape:connector-curvature="0"
       inkscape:label="#path8956-9" />
    <path
       style="fill:none;stroke:#800080;stroke-width:2;stroke-linecap:butt;stroke-linejoin:miter;stroke-miterlimit:4;stroke-opacity:1;stroke-dasharray:none"
       d="m 810.79742,1055.643 0.0645,-59.29649"
       id="bus_part_5"
       class="bus_part"
       inkscape:connector-curvature="0"
       sodipodi:nodetypes="cc"
       inkscape:label="#path8764-1" />
    <text
       sodipodi:linespacing="125%"
       id="text10873"
       y="2261.2681"
       x="375.44751"
       style="font-size:36.78915405px;font-style:normal;font-weight:normal;line-height:125%;letter-spacing:0px;word-spacing:0px;fill:#000000;fill-opacity:1;stroke:none;font-family:Sans"
       xml:space="preserve"><tspan
         y="2261.2681"
         x="375.44751"
         id="tspan10875"
         sodipodi:role="line" /></text>
    <flowRoot
       xml:space="preserve"
       id="flowRoot3616"
       style="font-size:40px;font-style:normal;font-weight:normal;line-height:125%;letter-spacing:0px;word-spacing:0px;fill:#000000;fill-opacity:1;stroke:none;font-family:Sans"
       transform="matrix(0.91972889,0,0,0.91972889,1.4635869,1614.7836)"><flowRegion
         id="flowRegion3618"><rect
           id="rect3620"
           width="102.04391"
           height="187.34624"
           x="771.70703"
           y="419.87131" /></flowRegion><flowPara
         id="flowPara3622" /></flowRoot>    <text
       xml:space="preserve"
       style="font-size:36.78915405px;font-style:normal;font-weight:normal;line-height:125%;letter-spacing:0px;word-spacing:0px;fill:#000000;fill-opacity:1;stroke:none;font-family:Sans"
       x="1107.7078"
       y="2357.7534"
       id="text4757"
       sodipodi:linespacing="125%"><tspan
         sodipodi:role="line"
         id="tspan4759"
         x="1107.7078"
         y="2357.7534" /></text>
    <text
       id="text3630-4-0-9-44"
       style="font-size:12.69225883px;font-style:normal;font-weight:normal;text-align:start;text-anchor:start;fill:#000000;font-family:Calibri"
       y="1782.5159"
       x="162.99875"
       xml:space="preserve" />
    <text
       id="text3630-4-0-9-4-6"
       style="font-size:12.69225883px;font-style:normal;font-weight:normal;text-align:start;text-anchor:start;fill:#000000;font-family:Calibri"
       y="1782.6411"
       x="203.71825"
       xml:space="preserve" />
    <text
       id="text3630-4-0-9-4-8-0"
       style="font-size:12.69225883px;font-style:normal;font-weight:normal;text-align:start;text-anchor:start;fill:#000000;font-family:Calibri"
       y="1782.5547"
       x="182.02608"
       xml:space="preserve" />
    <text
       xml:space="preserve"
       style="font-size:36.78915405px;font-style:normal;font-weight:normal;line-height:125%;letter-spacing:0px;word-spacing:0px;fill:#000000;fill-opacity:1;stroke:none;font-family:Sans"
       x="299.36545"
       y="2055.0969"
       id="text5580"
       sodipodi:linespacing="125%"><tspan
         sodipodi:role="line"
         id="tspan5582"
         x="299.36545"
         y="2055.0969" /></text>
    <text
       xml:space="preserve"
       style="font-size:36.78915405px;font-style:normal;font-weight:normal;line-height:125%;letter-spacing:0px;word-spacing:0px;fill:#000000;fill-opacity:1;stroke:none;font-family:Sans"
       x="254.24171"
       y="1413.2808"
       id="text4801"
       sodipodi:linespacing="125%"><tspan
         sodipodi:role="line"
         id="tspan4803"
         x="254.24171"
         y="1413.2808" /></text>
    <text
       xml:space="preserve"
       style="font-size:36.78915405px;font-style:normal;font-weight:normal;line-height:125%;letter-spacing:0px;word-spacing:0px;fill:#000000;fill-opacity:1;stroke:none;font-family:Sans"
       x="558.81927"
       y="1440.3683"
       id="text4915"
       sodipodi:linespacing="125%"><tspan
         sodipodi:role="line"
         id="tspan4917"
         x="558.81927"
         y="1440.3683" /></text>
    <text
       xml:space="preserve"
       style="font-size:36.78915405px;font-style:normal;font-weight:normal;line-height:125%;letter-spacing:0px;word-spacing:0px;fill:#000000;fill-opacity:1;stroke:none;font-family:Sans"
       x="25.972031"
       y="991.64612"
       id="channel_text"
       sodipodi:linespacing="125%"
       inkscape:label="#text8572"><tspan
         sodipodi:role="line"
         id="tspan8574"
         x="25.972031"
         y="991.64612"
         style="font-size:18.39457703px;font-style:normal;font-variant:normal;font-weight:normal;font-stretch:normal;text-align:start;line-height:125%;writing-mode:lr-tb;text-anchor:start;font-family:Sans;-inkscape-font-specification:Sans">CHANNEL 1</tspan></text>
    <text
       transform="scale(0.9371416,1.0670746)"
       sodipodi:linespacing="125%"
       id="channel"
       y="950.41553"
       x="28.36343"
       style="font-size:23.84121132px;font-style:normal;font-weight:normal;line-height:125%;letter-spacing:0px;word-spacing:0px;fill:#000000;fill-opacity:1;stroke:none;font-family:Sans"
       xml:space="preserve"
       inkscape:label="#text3659-1"><tspan
         style="font-size:16px;font-weight:bold"
         y="950.41553"
         x="28.36343"
         id="tspan3661-7"
         sodipodi:role="line">64 bits</tspan></text>
    <path
       style="fill:none;stroke:#000000;stroke-width:0.91313809px;stroke-linecap:butt;stroke-linejoin:miter;stroke-opacity:1;marker-start:url(#Arrow1Lstart);marker-end:none"
       d="m 179.47351,1025.2096 -24.65473,0"
       id="rank_arrow0"
       inkscape:connector-curvature="0"
       sodipodi:nodetypes="cc"
       inkscape:label="#path9189-4" />
    <text
       xml:space="preserve"
       style="font-size:36.52552795px;font-style:normal;font-weight:normal;line-height:125%;letter-spacing:0px;word-spacing:0px;fill:#000000;fill-opacity:1;stroke:none;font-family:Sans"
       x="101.21539"
       y="1030.144"
       id="rank_text0"
       sodipodi:linespacing="125%"
       inkscape:label="#text9597-0"><tspan
         sodipodi:role="line"
         id="tspan9599-94"
         x="101.21539"
         y="1030.144"
         style="font-size:14px;font-style:normal;font-variant:normal;font-weight:normal;font-stretch:normal;text-align:start;line-height:125%;writing-mode:lr-tb;text-anchor:start;font-family:Sans;-inkscape-font-specification:Sans">RANK 0</tspan></text>
    <path
       style="fill:none;stroke:#000000;stroke-width:0.91313809px;stroke-linecap:butt;stroke-linejoin:miter;stroke-opacity:1;marker-start:none;marker-end:url(#Arrow1Lend-4-3)"
       d="m 685.47746,1024.7156 -25.1113,0"
       id="rank_arrow1"
       inkscape:connector-curvature="0"
       sodipodi:nodetypes="cc"
       inkscape:label="#path9189-8-2" />
    <text
       xml:space="preserve"
       style="font-size:36.52552795px;font-style:normal;font-weight:normal;line-height:125%;letter-spacing:0px;word-spacing:0px;fill:#000000;fill-opacity:1;stroke:none;font-family:Sans"
       x="688.29773"
       y="1030.1343"
       id="rank_text_1"
       sodipodi:linespacing="125%"
       inkscape:label="#text9597-7-4"><tspan
         sodipodi:role="line"
         id="tspan9599-9-5"
         x="688.29773"
         y="1030.1343"
         style="font-size:14px;font-style:normal;font-variant:normal;font-weight:normal;font-stretch:normal;text-align:start;line-height:125%;writing-mode:lr-tb;text-anchor:start;font-family:Sans;-inkscape-font-specification:Sans">RANK 1</tspan></text>
    <path
       style="fill:none;stroke:#000000;stroke-width:0.91313809px;stroke-linecap:butt;stroke-linejoin:miter;stroke-opacity:1;marker-start:none;marker-end:url(#Arrow1Lend-4-3);visibility:hidden"
       d="m 685.47396,958.93029 -25.1113,0"
       id="rank_arrow_3"
       inkscape:connector-curvature="0"
       sodipodi:nodetypes="cc"
       inkscape:label="#path9189-8-2" />
    <text
       xml:space="preserve"
       style="font-size:36.52552795px;font-style:normal;font-weight:normal;line-height:125%;letter-spacing:0px;word-spacing:0px;fill:#000000;fill-opacity:1;stroke:none;visibility:hidden;font-family:Sans"
       x="688.29425"
       y="964.349"
       id="rank_text_3"
       sodipodi:linespacing="125%"
       inkscape:label="#text9597-7-4"><tspan
         sodipodi:role="line"
         id="tspan9599-9-5-2"
         x="688.29425"
         y="964.349"
         style="font-size:14px;font-style:normal;font-variant:normal;font-weight:normal;font-stretch:normal;text-align:start;line-height:125%;writing-mode:lr-tb;text-anchor:start;font-family:Sans;-inkscape-font-specification:Sans">RANK 3</tspan></text>
    <text
       xml:space="preserve"
       style="font-size:36.52552795px;font-style:normal;font-weight:normal;line-height:125%;letter-spacing:0px;word-spacing:0px;fill:#000000;fill-opacity:1;stroke:none;visibility:hidden;font-family:Sans"
       x="101.21552"
       y="964.34326"
       id="rank_text_2"
       sodipodi:linespacing="125%"
       inkscape:label="#text9597-0"><tspan
         sodipodi:role="line"
         id="tspan9599-94-6"
         x="101.21552"
         y="964.34326"
         style="font-size:14px;font-style:normal;font-variant:normal;font-weight:normal;font-stretch:normal;text-align:start;line-height:125%;writing-mode:lr-tb;text-anchor:start;font-family:Sans;-inkscape-font-specification:Sans">RANK 2</tspan></text>
  </g>
</svg>

